MPEI_Magistracy/Term_2/ASIC_design/CRC/dump/wave.vcd
$date
	Fri May 31 11:28:24 2024
$end
$version
	Icarus Verilog
$end
$timescale
	1ns
$end
$scope module tb $end
$var wire 1 ! rd_pro $end
$var wire 1 " out_ready_PRO $end
$var wire 1 # out_ready_CRC $end
$var wire 1 $ ok $end
$var wire 16 % crc_pro [15:0] $end
$var wire 16 & crc [15:0] $end
$var parameter 32 ' WIDTH $end
$var reg 1 ( clk $end
$var reg 16 ) data [15:0] $end
$var reg 16 * data_1 [15:0] $end
$var reg 17 + polynom_i [16:0] $end
$var reg 1 , rd $end
$var reg 1 - rst $end
$scope module UUT $end
$var wire 1 ( clk $end
$var wire 16 . data [15:0] $end
$var wire 16 / data_1 [15:0] $end
$var wire 17 0 polynom_i [16:0] $end
$var wire 1 , rd $end
$var wire 1 - rst $end
$var wire 1 " out_ready_PRO $end
$var wire 1 # out_ready_CRC $end
$var wire 1 $ OK $end
$var wire 16 1 CRC_pro [15:0] $end
$var wire 16 2 CRC [15:0] $end
$var parameter 32 3 WIDTH $end
$var reg 5 4 cntp [4:0] $end
$var reg 1 ! rd_pro $end
$scope module uut0 $end
$var wire 1 ( clk $end
$var wire 16 5 data [15:0] $end
$var wire 17 6 polynom_i [16:0] $end
$var wire 1 , rd $end
$var wire 1 - rst $end
$var parameter 32 7 WIDTH $end
$var reg 16 8 CRC [15:0] $end
$var reg 5 9 cnt [4:0] $end
$var reg 16 : data_CRC [15:0] $end
$var reg 32 ; ext_data [31:0] $end
$var reg 1 # out_ready_CRC $end
$var reg 17 < polynomial [16:0] $end
$var reg 1 = ready_CRC $end
$var reg 17 > reg_xor [16:0] $end
$var reg 17 ? shifter [16:0] $end
$upscope $end
$scope module uut1 $end
$var wire 16 @ CRC_IN [15:0] $end
$var wire 1 ( clk $end
$var wire 16 A data [15:0] $end
$var wire 17 B polynom_i [16:0] $end
$var wire 1 ! rd $end
$var wire 1 - rst $end
$var parameter 32 C WIDTH $end
$var reg 16 D CRC [15:0] $end
$var reg 16 E CRC_IN1 [15:0] $end
$var reg 5 F cnt [4:0] $end
$var reg 16 G data_CRC [15:0] $end
$var reg 32 H ext_data [31:0] $end
$var reg 1 " out_ready_CRC $end
$var reg 17 I polynomial [16:0] $end
$var reg 1 J ready_CRC $end
$var reg 17 K reg_xor [16:0] $end
$var reg 17 L shifter [16:0] $end
$upscope $end
$upscope $end
$upscope $end
$enddefinitions $end
$comment Show the parameter values. $end
$dumpall
b10000 C
b10000 7
b10000 3
b10000 '
$end
#0
$dumpvars
b0 L
b0 K
0J
b11000000000000101 I
b0 H
b0 G
b0 F
b0 E
b0 D
b11000000000000101 B
b1010101011111111 A
b0 @
b0 ?
b0 >
0=
b11000000000000101 <
b0 ;
b0 :
b0 9
b0 8
b11000000000000101 6
b1010101011111110 5
bx 4
b0 2
b0 1
b11000000000000101 0
b1010101011111110 /
b1010101011111111 .
0-
0,
b11000000000000101 +
b1010101011111110 *
b1010101011111111 )
0(
b0 &
b0 %
x$
0#
0"
x!
$end
#1
1!
b0 4
1(
#2
0(
#3
1(
#4
0(
#5
bx0000000000000000 H
b10101010111111110 L
b1 9
1(
1-
#6
0(
1,
#7
b10101010111111100000000000000000 ;
b10101010111111100 ?
1(
#8
0(
#9
1(
#10
0(
#11
b0 9
b0 ?
b0 ;
b0 L
b0 H
1(
0-
#12
0(
#13
1(
#14
0(
0,
#15
1(
#16
0(
1,
#17
1(
#18
0(
#19
1(
#20
0(
#21
bx0000000000000000 H
b10101010111111110 L
b10101010111111100000000000000000 ;
b10101010111111100 ?
1(
1-
#22
0(
#23
1(
#24
0(
#25
1(
#26
0(
#27
1(
#28
0(
#29
1(
#30
0(
#31
1(
#32
0(
#33
1(
#34
0(
#35
1(
#36
0(
#37
1(
#38
0(
#39
1(
#40
0(
#41
1(
#42
0(
#43
1(
#44
0(
#45
1(
#46
0(
#47
1(
#48
0(
#49
1(
#50
0(
#51
b1010101111111000000000000000000 ;
b1 9
b11010101111110010 ?
b1101010111111001 >
1(
0,
#52
0(
#53
b10101011111110000000000000000000 ;
b10 9
b101011111101110 ?
b10101111110111 >
1(
#54
0(
#55
b1010111111100000000000000000000 ;
b11 9
b1010111111011100 ?
1(
#56
0(
#57
b10101111111000000000000000000000 ;
b100 9
b10101111110111000 ?
1(
#58
0(
#59
b1011111110000000000000000000000 ;
b101 9
b11011111101111010 ?
b1101111110111101 >
1(
#60
0(
#61
b10111111100000000000000000000000 ;
b110 9
b111111011111110 ?
b11111101111111 >
1(
#62
0(
#63
b1111111000000000000000000000000 ;
b111 9
b1111110111111100 ?
1(
#64
0(
#65
b11111110000000000000000000000000 ;
b1000 9
b11111101111111000 ?
1(
#66
0(
#67
b11111100000000000000000000000000 ;
b1001 9
b1111011111111010 ?
b111101111111101 >
1(
#68
0(
#69
b11111000000000000000000000000000 ;
b1010 9
b11110111111110100 ?
1(
#70
0(
#71
b11110000000000000000000000000000 ;
b1011 9
b1101111111100010 ?
b110111111110001 >
1(
#72
0(
#73
b11100000000000000000000000000000 ;
b1100 9
b11011111111000100 ?
1(
#74
0(
#75
b11000000000000000000000000000000 ;
b1101 9
b111111110000010 ?
b11111111000001 >
1(
#76
0(
#77
b10000000000000000000000000000000 ;
b1110 9
b1111111100000100 ?
1(
#78
0(
#79
b0 ;
b1111 9
b11111111000001000 ?
1(
#80
0(
#81
b10000 9
b1111110000011010 ?
b111111000001101 >
1(
#82
0(
#83
b1111110000011010 E
1#
b1111110000011010 &
b1111110000011010 2
b1111110000011010 8
b1111110000011010 @
b1111110000011010 :
1=
1(
#84
0(
#85
bx1111110000011010 H
b1 4
1(
#86
0(
#87
b10 4
1(
#88
0(
#89
b11 4
1(
#90
0(
#91
b100 4
1(
#92
0(
#93
b101 4
1(
#94
0(
#95
b110 4
1(
#96
0(
#97
b111 4
1(
#98
0(
#99
b1000 4
1(
#100
0(
#101
b1001 4
1(
#102
0(
#103
b1010 4
1(
#104
0(
#105
0!
1(
#106
0(
#107
bx11111100000110100 H
b1 F
b11010101111110111 L
b1101010111111011 K
1(
#108
0(
#109
bx111111000001101000 H
b10 F
b101011111100101 L
b10101111110010 K
1(
#110
0(
#111
bx1111110000011010000 H
b11 F
b1010111111001011 L
1(
#112
0(
#113
bx11111100000110100000 H
b100 F
b10101111110010111 L
1(
#114
0(
#115
bx111111000001101000000 H
b101 F
b11011111100100101 L
b1101111110010010 K
1(
#116
0(
#117
bx1111110000011010000000 H
b110 F
b111111001000001 L
b11111100100000 K
1(
#118
0(
#119
bx11111100000110100000000 H
b111 F
b1111110010000010 L
1(
#120
0(
#121
bx111111000001101000000000 H
b1000 F
b11111100100000100 L
1(
#122
0(
#123
bx1111110000011010000000000 H
b1001 F
b1111001000000010 L
b111100100000001 K
1(
#124
0(
#125
bx11111100000110100000000000 H
b1010 F
b11110010000000100 L
1(
#126
0(
#127
bx111111000001101000000000000 H
b1011 F
b1100100000000010 L
b110010000000001 K
1(
#128
0(
#129
bx1111110000011010000000000000 H
b1100 F
b11001000000000101 L
1(
#130
0(
#131
bx11111100000110100000000000000 H
b1101 F
b10000000000001 L
b1000000000000 K
1(
#132
0(
#133
bx111111000001101000000000000000 H
b1110 F
b100000000000010 L
1(
#134
0(
#135
bx1111110000011010000000000000000 H
b1111 F
b1000000000000101 L
1(
#136
0(
#137
b11111100000110100000000000000000 H
b10000 F
b10000000000001010 L
1(
#138
0(
#139
0$
1"
b1010 %
b1010 1
b1010 D
b1010 G
1J
b1000000000001111 L
1(
#140
0(
#141
b1000000000001111 %
b1000000000001111 1
b1000000000001111 D
b1000000000001111 G
1(
