MPEI_Magistracy/Term_two/ASIC_design/LFSR/LFSR_GEN/dump/wave.vcd
$date
	Wed Mar 27 10:44:13 2024
$end
$version
	Icarus Verilog
$end
$timescale
	1s
$end
$scope module tb $end
$var wire 16 ! data [15:0] $end
$var reg 1 " clk $end
$var reg 1 # en $end
$var reg 4 $ len [3:0] $end
$var reg 1 % load $end
$var reg 17 & poly_one [16:0] $end
$var reg 17 ' poly_two [16:0] $end
$var reg 16 ( seed_one [15:0] $end
$var reg 16 ) seed_two [15:0] $end
$var reg 4 * shift [3:0] $end
$scope module UUT $end
$var wire 1 " CLK_I $end
$var wire 1 # EN_I $end
$var wire 4 + LEN_I [3:0] $end
$var wire 1 % LOAD_I $end
$var wire 17 , POLY_ONE_I [16:0] $end
$var wire 17 - POLY_TWO_I [16:0] $end
$var wire 1 . RST_N_I $end
$var wire 16 / SEED_ONE_I [15:0] $end
$var wire 16 0 SEED_TWO_I [15:0] $end
$var wire 4 1 SHIFT_I [3:0] $end
$var wire 16 2 lfsr_two_w [15:0] $end
$var wire 16 3 lfsr_three_w [15:0] $end
$var wire 16 4 lfsr_one_w [15:0] $end
$var parameter 32 5 MAX_LEN $end
$var reg 16 6 DATA_O [15:0] $end
$scope module LFSR_Fibonacci_one $end
$var wire 1 " CLK_I $end
$var wire 16 7 DATA_O [15:0] $end
$var wire 1 # EN_I $end
$var wire 4 8 LEN_I [3:0] $end
$var wire 1 % LOAD_I $end
$var wire 17 9 POLY_I [16:0] $end
$var wire 16 : SEED_I [15:0] $end
$var wire 4 ; SHIFT_I [3:0] $end
$var parameter 32 < MAX_LEN $end
$var reg 4 = len_reg [3:0] $end
$var reg 16 > lfsr_reg [15:0] $end
$var reg 17 ? nodes [16:0] $end
$var reg 16 @ poly_reg [15:0] $end
$var reg 4 A shift_reg [3:0] $end
$scope function feedback_calc $end
$var reg 4 B len [3:0] $end
$var reg 16 C polynome [15:0] $end
$var reg 16 D reg_value [15:0] $end
$var reg 1 E value $end
$scope begin $ivl_for_loop0 $end
$var integer 32 F i [31:0] $end
$upscope $end
$upscope $end
$scope begin $ivl_for_loop1 $end
$var integer 32 G i [31:0] $end
$upscope $end
$upscope $end
$scope module LFSR_Fibonacci_tree $end
$var wire 1 " CLK_I $end
$var wire 16 H DATA_O [15:0] $end
$var wire 1 # EN_I $end
$var wire 4 I LEN_I [3:0] $end
$var wire 1 % LOAD_I $end
$var wire 17 J POLY_I [16:0] $end
$var wire 16 K SEED_I [15:0] $end
$var wire 4 L SHIFT_I [3:0] $end
$var parameter 32 M MAX_LEN $end
$var reg 4 N len_reg [3:0] $end
$var reg 16 O lfsr_reg [15:0] $end
$var reg 17 P nodes [16:0] $end
$var reg 16 Q poly_reg [15:0] $end
$var reg 4 R shift_reg [3:0] $end
$scope function feedback_calc $end
$var reg 4 S len [3:0] $end
$var reg 16 T polynome [15:0] $end
$var reg 16 U reg_value [15:0] $end
$var reg 1 V value $end
$scope begin $ivl_for_loop0 $end
$var integer 32 W i [31:0] $end
$upscope $end
$upscope $end
$scope begin $ivl_for_loop1 $end
$var integer 32 X i [31:0] $end
$upscope $end
$upscope $end
$scope module LFSR_Fibonacci_two $end
$var wire 1 " CLK_I $end
$var wire 16 Y DATA_O [15:0] $end
$var wire 1 # EN_I $end
$var wire 4 Z LEN_I [3:0] $end
$var wire 1 % LOAD_I $end
$var wire 17 [ POLY_I [16:0] $end
$var wire 16 \ SEED_I [15:0] $end
$var wire 4 ] SHIFT_I [3:0] $end
$var parameter 32 ^ MAX_LEN $end
$var reg 4 _ len_reg [3:0] $end
$var reg 16 ` lfsr_reg [15:0] $end
$var reg 17 a nodes [16:0] $end
$var reg 16 b poly_reg [15:0] $end
$var reg 4 c shift_reg [3:0] $end
$scope function feedback_calc $end
$var reg 4 d len [3:0] $end
$var reg 16 e polynome [15:0] $end
$var reg 16 f reg_value [15:0] $end
$var reg 1 g value $end
$scope begin $ivl_for_loop0 $end
$var integer 32 h i [31:0] $end
$upscope $end
$upscope $end
$scope begin $ivl_for_loop1 $end
$var integer 32 i i [31:0] $end
$upscope $end
$upscope $end
$upscope $end
$scope begin $ivl_for_loop2 $end
$var integer 32 j j [31:0] $end
$scope begin $ivl_for_loop3 $end
$var integer 32 k i [31:0] $end
$upscope $end
$upscope $end
$upscope $end
$enddefinitions $end
$comment Show the parameter values. $end
$dumpall
b10000 ^
b10000 M
b10000 <
b10000 5
$end
#0
$dumpvars
b0 k
b0 j
b0 i
b0 h
xg
bx f
bx e
bx d
bx c
bx b
b0xxxxxxxxxxxxxxxx a
bx `
bx _
b0 ]
b11001 \
b111000100110101 [
b1101 Z
bx Y
b0 X
b0 W
xV
bx U
bx T
bx S
bx R
bx Q
b0xxxxxxxxxxxxxxxx P
bx O
bx N
b0 L
b11001 K
b111000000000101 J
b1101 I
bx H
b0 G
b0 F
xE
bx D
bx C
bx B
bx A
bx @
b0xxxxxxxxxxxxxxxx ?
bx >
bx =
b0 ;
b1101 :
b111000000000101 9
b1101 8
bx 7
bx 6
bx 4
bx 3
bx 2
b0 1
b11001 0
b1101 /
z.
b111000100110101 -
b111000000000101 ,
b1101 +
b0 *
b11001 )
b1101 (
b111000100110101 '
b111000000000101 &
0%
b1101 $
0#
0"
bx !
$end
#5
b0 !
b0 6
1"
#10
0"
#15
1"
#20
0"
#25
1"
#30
0"
#35
1"
#40
0"
#45
1"
#50
0"
#55
1"
#60
0"
#65
1"
#70
0"
#75
1"
#80
0"
#85
1"
#90
0"
#95
1"
#100
0"
#105
b1101 ?
b11001 P
b11001 a
1%
1"
#110
0"
#115
0%
b11001 3
b11001 H
b11001 O
b1101 N
b11100000000010 Q
b0 R
b11001 2
b11001 Y
b11001 `
b1101 _
b11100010011010 b
b0 c
b1101 4
b1101 7
b1101 >
b1101 =
b11100000000010 @
b0 A
1"
#120
0"
#125
b1 G
b1101 F
0E
b11100000000010 C
b1101 D
b1101 B
b11010 ?
b1 X
b1101 W
0V
b11100000000010 T
b11001 U
b1101 S
b110010 P
b1 i
b1101 h
0g
b11100010011010 e
b11001 f
b1101 d
b110010 a
b11001 !
b11001 6
1#
1%
1"
#130
0"
#135
1V
b1101 W
b110010 U
b1100101 P
b1 X
0g
b1101 h
b110010 f
b1100100 a
b1 i
1E
b1101 F
b11010 D
b110101 ?
b1 G
0%
b110010 3
b110010 H
b110010 O
b110010 2
b110010 Y
b110010 `
b11010 4
b11010 7
b11010 >
1"
#140
0"
#145
b1101 F
0E
b110101 D
b1101010 ?
b1 G
b1101 h
b1100100 f
b11001000 a
b1 i
b1101 W
0V
b1100101 U
b11001010 P
b1 X
b11010 !
b11010 6
b110101 4
b110101 7
b110101 >
b1100100 2
b1100100 Y
b1100100 `
b1100101 3
b1100101 H
b1100101 O
b1 k
1"
#150
0"
#155
1V
b1101 W
b11001010 U
b110010101 P
b1 X
0g
b1101 h
b11001000 f
b110010000 a
b1 i
1E
b1101 F
b1101010 D
b11010101 ?
b1 G
b1100100 !
b1100100 6
b11001010 3
b11001010 H
b11001010 O
b11001000 2
b11001000 Y
b11001000 `
b1101010 4
b1101010 7
b1101010 >
b10 k
1"
#160
0"
#165
b1101 F
0E
b11010101 D
b110101010 ?
b1 G
0g
b1101 h
b110010000 f
b1100100000 a
b1 i
b1101 W
0V
b110010101 U
b1100101010 P
b1 X
b1101010 !
b1101010 6
b11010101 4
b11010101 7
b11010101 >
b110010000 2
b110010000 Y
b110010000 `
b110010101 3
b110010101 H
b110010101 O
b11 k
1"
#170
0"
#175
1V
b1101 W
b1100101010 U
b11001010101 P
b1 X
b1101 h
b1100100000 f
b11001000000 a
b1 i
1E
b1101 F
b110101010 D
b1101010101 ?
b1 G
b110010000 !
b110010000 6
b1100101010 3
b1100101010 H
b1100101010 O
b1100100000 2
b1100100000 Y
b1100100000 `
b110101010 4
b110101010 7
b110101010 >
b100 k
1"
#180
0"
#185
b1101 F
0E
b1101010101 D
b11010101010 ?
b1 G
b1101 h
b11001000000 f
b110010000000 a
b1 i
b1101 W
0V
b11001010101 U
b110010101010 P
b1 X
b110101010 !
b110101010 6
b1101010101 4
b1101010101 7
b1101010101 >
b11001000000 2
b11001000000 Y
b11001000000 `
b11001010101 3
b11001010101 H
b11001010101 O
b101 k
1"
#190
0"
#195
0V
b1101 W
b110010101010 U
b1100101010100 P
b1 X
0g
b1101 h
b110010000000 f
b1100100000000 a
b1 i
1E
b1101 F
b11010101010 D
b110101010101 ?
b1 G
b11001000000 !
b11001000000 6
b110010101010 3
b110010101010 H
b110010101010 O
b110010000000 2
b110010000000 Y
b110010000000 `
b11010101010 4
b11010101010 7
b11010101010 >
b110 k
1"
#200
0"
#205
b1101 F
1E
b110101010101 D
b1101010101011 ?
b1 G
0g
b1101 h
b1100100000000 f
b11001000000000 a
b1 i
0V
b1101 W
b1100101010100 U
b11001010101000 P
b1 X
b11010101010 !
b11010101010 6
b110101010101 4
b110101010101 7
b110101010101 >
b1100100000000 2
b1100100000000 Y
b1100100000000 `
b1100101010100 3
b1100101010100 H
b1100101010100 O
b111 k
1"
#210
0"
#215
b1101 W
0V
b11001010101000 U
b110010101010000 P
b1 X
b1101 h
0g
b11001000000000 f
b110010000000000 a
b1 i
b1101 F
1E
b1101010101011 D
b11010101010111 ?
b1 G
b110101010101 !
b110101010101 6
b11001010101000 3
b11001010101000 H
b11001010101000 O
b11001000000000 2
b11001000000000 Y
b11001000000000 `
b1101010101011 4
b1101010101011 7
b1101010101011 >
b1000 k
1"
#220
0"
#225
1E
b1101 F
b11010101010111 D
b110101010101111 ?
b1 G
b1101 h
1g
b110010000000000 f
b1100100000000001 a
b1 i
b1101 W
1V
b110010101010000 U
b1100101010100001 P
b1 X
b1101010101011 !
b1101010101011 6
b11010101010111 4
b11010101010111 7
b11010101010111 >
b110010000000000 2
b110010000000000 Y
b110010000000000 `
b110010101010000 3
b110010101010000 H
b110010101010000 O
b1001 k
1"
#230
0"
#235
b1101 W
1V
b1100101010100001 U
b11001010101000011 P
b1 X
b1101 h
1g
b1100100000000001 f
b11001000000000011 a
b1 i
1E
b1101 F
b110101010101111 D
b1101010101011111 ?
b1 G
b11010101010111 !
b11010101010111 6
b1100101010100001 3
b1100101010100001 H
b1100101010100001 O
b1100100000000001 2
b1100100000000001 Y
b1100100000000001 `
b110101010101111 4
b110101010101111 7
b110101010101111 >
b1010 k
1"
#240
0"
#245
b1101 F
0E
b1101010101011111 D
b11010101010111110 ?
b1 G
b1101 h
0g
b1001000000000011 f
b1 i
b10010000000000110 a
b1101 W
0V
b1001010101000011 U
b1 X
b10010101010000110 P
b1100100000000001 !
b1100100000000001 6
b1101010101011111 4
b1101010101011111 7
b1101010101011111 >
b1001000000000011 2
b1001000000000011 Y
b1001000000000011 `
b1001010101000011 3
b1001010101000011 H
b1001010101000011 O
b1011 k
1"
#250
0"
#255
b1101 W
1V
b10101010000110 U
b1 X
b101010100001101 P
b1101 h
0g
b10000000000110 f
b1 i
b100000000001100 a
b1101 F
1E
b1010101010111110 D
b1 G
b10101010101111101 ?
b1001000000000011 !
b1001000000000011 6
b10101010000110 3
b10101010000110 H
b10101010000110 O
b10000000000110 2
b10000000000110 Y
b10000000000110 `
b1010101010111110 4
b1010101010111110 7
b1010101010111110 >
b1100 k
1"
#260
0"
#265
b1101 F
1E
b101010101111101 D
b1 G
b1010101011111011 ?
1g
b1101 h
b100000000001100 f
b1000000000011001 a
b1 i
b1101 W
1V
b101010100001101 U
b1010101000011011 P
b1 X
b1010101010111110 !
b1010101010111110 6
b101010101111101 4
b101010101111101 7
b101010101111101 >
b100000000001100 2
b100000000001100 Y
b100000000001100 `
b101010100001101 3
b101010100001101 H
b101010100001101 O
b1101 k
1"
#270
0"
#275
1V
b1101 W
b1010101000011011 U
b10101010000110111 P
b1 X
b1101 h
0g
b1000000000011001 f
b10000000000110010 a
b1 i
1E
b1101 F
b1010101011111011 D
b10101010111110111 ?
b1 G
b100000000001100 !
b100000000001100 6
b1010101000011011 3
b1010101000011011 H
b1010101000011011 O
b1000000000011001 2
b1000000000011001 Y
b1000000000011001 `
b1010101011111011 4
b1010101011111011 7
b1010101011111011 >
b1110 k
1"
#280
0"
#285
b1101 F
0E
b101010111110111 D
b1 G
b1010101111101110 ?
0g
b1101 h
b110010 f
b1 i
b1100100 a
b1101 W
0V
b101010000110111 U
b1 X
b1010100001101110 P
b1000000000011001 !
b1000000000011001 6
b101010111110111 4
b101010111110111 7
b101010111110111 >
b110010 2
b110010 Y
b110010 `
b101010000110111 3
b101010000110111 H
b101010000110111 O
b1111 k
1"
#290
0"
#295
b1101 W
1V
b1010100001101110 U
b10101000011011101 P
b1 X
b1101 h
b1100100 f
b11001000 a
b1 i
b1101 F
1E
b1010101111101110 D
b10101011111011101 ?
b1 G
b110010 !
b110010 6
b1010100001101110 3
b1010100001101110 H
b1010100001101110 O
b1100100 2
b1100100 Y
b1100100 `
b1010101111101110 4
b1010101111101110 7
b1010101111101110 >
b10000 k
1"
#300
0"
#305
b1101 F
1E
b101011111011101 D
b1 G
b1010111110111011 ?
0g
b1101 h
b11001000 f
b110010000 a
b1 i
b1101 W
1V
b101000011011101 U
b1 X
b1010000110111011 P
b1010101111101110 !
b1010101111101110 6
b101011111011101 4
b101011111011101 7
b101011111011101 >
b11001000 2
b11001000 Y
b11001000 `
b101000011011101 3
b101000011011101 H
b101000011011101 O
b10001 k
1"
#310
0"
#315
0V
b1101 W
b1010000110111011 U
b10100001101110110 P
b1 X
0g
b1101 h
b110010000 f
b1100100000 a
b1 i
1E
b1101 F
b1010111110111011 D
b10101111101110111 ?
b1 G
b11001000 !
b11001000 6
b1010000110111011 3
b1010000110111011 H
b1010000110111011 O
b110010000 2
b110010000 Y
b110010000 `
b1010111110111011 4
b1010111110111011 7
b1010111110111011 >
b10010 k
1"
#320
0"
#325
b1101 F
1E
b101111101110111 D
b1 G
b1011111011101111 ?
b1101 h
b1100100000 f
b11001000000 a
b1 i
1V
b1101 W
b100001101110110 U
b1 X
b1000011011101101 P
b110010000 !
b110010000 6
b101111101110111 4
b101111101110111 7
b101111101110111 >
b1100100000 2
b1100100000 Y
b1100100000 `
b100001101110110 3
b100001101110110 H
b100001101110110 O
b10011 k
1"
#330
0"
#335
b1101 W
0V
b1000011011101101 U
b10000110111011010 P
b1 X
b1101 h
b11001000000 f
b110010000000 a
b1 i
0E
b1101 F
b1011111011101111 D
b10111110111011110 ?
b1 G
b101111101110111 !
b101111101110111 6
b1000011011101101 3
b1000011011101101 H
b1000011011101101 O
b11001000000 2
b11001000000 Y
b11001000000 `
b1011111011101111 4
b1011111011101111 7
b1011111011101111 >
b10100 k
1"
#340
0"
#345
b1101 F
0E
b111110111011110 D
b1 G
b1111101110111100 ?
0g
b1101 h
b110010000000 f
b1100100000000 a
b1 i
0V
b1101 W
b110111011010 U
b1 X
b1101110110100 P
b11001000000 !
b11001000000 6
b111110111011110 4
b111110111011110 7
b111110111011110 >
b110010000000 2
b110010000000 Y
b110010000000 `
b110111011010 3
b110111011010 H
b110111011010 O
b10101 k
1"
#350
0"
#355
0V
b1101 W
b1101110110100 U
b11011101101000 P
b1 X
0g
b1101 h
b1100100000000 f
b11001000000000 a
b1 i
b1101 F
1E
b1111101110111100 D
b11111011101111001 ?
b1 G
b111110111011110 !
b111110111011110 6
b1101110110100 3
b1101110110100 H
b1101110110100 O
b1100100000000 2
b1100100000000 Y
b1100100000000 `
b1111101110111100 4
b1111101110111100 7
b1111101110111100 >
b10110 k
1"
#360
0"
#365
0E
b1101 F
b1111011101111001 D
b1 G
b11110111011110010 ?
b1101 h
0g
b11001000000000 f
b110010000000000 a
b1 i
b1101 W
0V
b11011101101000 U
b110111011010000 P
b1 X
b1111101110111100 !
b1111101110111100 6
b1111011101111001 4
b1111011101111001 7
b1111011101111001 >
b11001000000000 2
b11001000000000 Y
b11001000000000 `
b11011101101000 3
b11011101101000 H
b11011101101000 O
b10111 k
1"
#370
0"
#375
b1101 W
0V
b110111011010000 U
b1101110110100000 P
b1 X
b1101 h
1g
b110010000000000 f
b1100100000000001 a
b1 i
b1101 F
1E
b1110111011110010 D
b1 G
b11101110111100101 ?
b1111011101111001 !
b1111011101111001 6
b110111011010000 3
b110111011010000 H
b110111011010000 O
b110010000000000 2
b110010000000000 Y
b110010000000000 `
b1110111011110010 4
b1110111011110010 7
b1110111011110010 >
b11000 k
1"
#380
0"
#385
b1101 F
0E
b1101110111100101 D
b1 G
b11011101111001010 ?
b1101 h
1g
b1100100000000001 f
b11001000000000011 a
b1 i
0V
b1101 W
b1101110110100000 U
b11011101101000000 P
b1 X
b1110111011110010 !
b1110111011110010 6
b1101110111100101 4
b1101110111100101 7
b1101110111100101 >
b1100100000000001 2
b1100100000000001 Y
b1100100000000001 `
b1101110110100000 3
b1101110110100000 H
b1101110110100000 O
b11001 k
1"
#390
0"
#395
b1101 W
1V
b1011101101000000 U
b1 X
b10111011010000001 P
b1101 h
0g
b1001000000000011 f
b1 i
b10010000000000110 a
b1101 F
0E
b1011101111001010 D
b1 G
b10111011110010100 ?
b1101110111100101 !
b1101110111100101 6
b1011101101000000 3
b1011101101000000 H
b1011101101000000 O
b1001000000000011 2
b1001000000000011 Y
b1001000000000011 `
b1011101111001010 4
b1011101111001010 7
b1011101111001010 >
b11010 k
1"
#400
0"
#405
b1101 F
0E
b111011110010100 D
b1 G
b1110111100101000 ?
b1101 h
0g
b10000000000110 f
b1 i
b100000000001100 a
0V
b1101 W
b111011010000001 U
b1 X
b1110110100000010 P
b1011101111001010 !
b1011101111001010 6
b111011110010100 4
b111011110010100 7
b111011110010100 >
b10000000000110 2
b10000000000110 Y
b10000000000110 `
b111011010000001 3
b111011010000001 H
b111011010000001 O
b11011 k
1"
#410
0"
#415
b1101 W
1V
b1110110100000010 U
b11101101000000101 P
b1 X
1g
b1101 h
b100000000001100 f
b1000000000011001 a
b1 i
b1101 F
0E
b1110111100101000 D
b11101111001010000 ?
b1 G
b10000000000110 !
b10000000000110 6
b1110110100000010 3
b1110110100000010 H
b1110110100000010 O
b100000000001100 2
b100000000001100 Y
b100000000001100 `
b1110111100101000 4
b1110111100101000 7
b1110111100101000 >
b11100 k
1"
#420
0"
#425
0E
b1101 F
b1101111001010000 D
b1 G
b11011110010100000 ?
b1101 h
0g
b1000000000011001 f
b10000000000110010 a
b1 i
b1101 W
0V
b1101101000000101 U
b1 X
b11011010000001010 P
b1110111100101000 !
b1110111100101000 6
b1101111001010000 4
b1101111001010000 7
b1101111001010000 >
b1000000000011001 2
b1000000000011001 Y
b1000000000011001 `
b1101101000000101 3
b1101101000000101 H
b1101101000000101 O
b11101 k
1"
#430
0"
#435
b1101 W
1V
b1011010000001010 U
b1 X
b10110100000010101 P
0g
b1101 h
b110010 f
b1 i
b1100100 a
b1101 F
1E
b1011110010100000 D
b1 G
b10111100101000001 ?
b1000000000011001 !
b1000000000011001 6
b1011010000001010 3
b1011010000001010 H
b1011010000001010 O
b110010 2
b110010 Y
b110010 `
b1011110010100000 4
b1011110010100000 7
b1011110010100000 >
b11110 k
1"
#440
0"
#445
1E
b1101 F
b111100101000001 D
b1 G
b1111001010000011 ?
b1101 h
b1100100 f
b11001000 a
b1 i
0V
b1101 W
b110100000010101 U
b1 X
b1101000000101010 P
b1011110010100000 !
b1011110010100000 6
b111100101000001 4
b111100101000001 7
b111100101000001 >
b1100100 2
b1100100 Y
b1100100 `
b110100000010101 3
b110100000010101 H
b110100000010101 O
b11111 k
1"
#450
0"
#455
0V
b1101 W
b1101000000101010 U
b11010000001010100 P
b1 X
0g
b1101 h
b11001000 f
b110010000 a
b1 i
1E
b1101 F
b1111001010000011 D
b11110010100000111 ?
b1 G
b1100100 !
b1100100 6
b1101000000101010 3
b1101000000101010 H
b1101000000101010 O
b11001000 2
b11001000 Y
b11001000 `
b1111001010000011 4
b1111001010000011 7
b1111001010000011 >
b100000 k
1"
#460
0"
#465
0E
b1101 F
b1110010100000111 D
b1 G
b11100101000001110 ?
0g
b1101 h
b110010000 f
b1100100000 a
b1 i
b1101 W
1V
b1010000001010100 U
b1 X
b10100000010101001 P
b1111001010000011 !
b1111001010000011 6
b1110010100000111 4
b1110010100000111 7
b1110010100000111 >
b110010000 2
b110010000 Y
b110010000 `
b1010000001010100 3
b1010000001010100 H
b1010000001010100 O
b100001 k
1"
#470
0"
#475
b1101 W
0V
b100000010101001 U
b1 X
b1000000101010010 P
b1101 h
b1100100000 f
b11001000000 a
b1 i
0E
b1101 F
b1100101000001110 D
b1 G
b11001010000011100 ?
b1110010100000111 !
b1110010100000111 6
b100000010101001 3
b100000010101001 H
b100000010101001 O
b1100100000 2
b1100100000 Y
b1100100000 `
b1100101000001110 4
b1100101000001110 7
b1100101000001110 >
b100010 k
1"
#480
0"
#485
1E
b1101 F
b1001010000011100 D
b1 G
b10010100000111001 ?
b1101 h
b11001000000 f
b110010000000 a
b1 i
1V
b1101 W
b1000000101010010 U
b10000001010100101 P
b1 X
b1100100000 !
b1100100000 6
b1001010000011100 4
b1001010000011100 7
b1001010000011100 >
b11001000000 2
b11001000000 Y
b11001000000 `
b1000000101010010 3
b1000000101010010 H
b1000000101010010 O
b100011 k
1"
#490
0"
#495
b1101 W
0V
b1010100101 U
b1 X
b10101001010 P
0g
b1101 h
b110010000000 f
b1100100000000 a
b1 i
0E
b1101 F
b10100000111001 D
b1 G
b101000001110010 ?
b1001010000011100 !
b1001010000011100 6
b1010100101 3
b1010100101 H
b1010100101 O
b110010000000 2
b110010000000 Y
b110010000000 `
b10100000111001 4
b10100000111001 7
b10100000111001 >
b100100 k
1"
#500
0"
#505
0E
b1101 F
b101000001110010 D
b1010000011100100 ?
b1 G
0g
b1101 h
b1100100000000 f
b11001000000000 a
b1 i
1V
b1101 W
b10101001010 U
b101010010101 P
b1 X
b110010000000 !
b110010000000 6
b101000001110010 4
b101000001110010 7
b101000001110010 >
b1100100000000 2
b1100100000000 Y
b1100100000000 `
b10101001010 3
b10101001010 H
b10101001010 O
b100101 k
1"
#510
0"
#515
b1101 W
1V
b101010010101 U
b1010100101011 P
b1 X
b1101 h
0g
b11001000000000 f
b110010000000000 a
b1 i
b1101 F
1E
b1010000011100100 D
b10100000111001001 ?
b1 G
b101000001110010 !
b101000001110010 6
b101010010101 3
b101010010101 H
b101010010101 O
b11001000000000 2
b11001000000000 Y
b11001000000000 `
b1010000011100100 4
b1010000011100100 7
b1010000011100100 >
b100110 k
1"
#520
0"
#525
b1101 F
0E
b100000111001001 D
b1 G
b1000001110010010 ?
b1101 h
1g
b110010000000000 f
b1100100000000001 a
b1 i
b1101 W
0V
b1010100101011 U
b10101001010110 P
b1 X
b11001000000000 !
b11001000000000 6
b100000111001001 4
b100000111001001 7
b100000111001001 >
b110010000000000 2
b110010000000000 Y
b110010000000000 `
b1010100101011 3
b1010100101011 H
b1010100101011 O
b100111 k
1"
#530
0"
#535
b1101 W
1V
b10101001010110 U
b101010010101101 P
b1 X
b1101 h
1g
b1100100000000001 f
b11001000000000011 a
b1 i
1E
b1101 F
b1000001110010010 D
b10000011100100101 ?
b1 G
b110010000000000 !
b110010000000000 6
b10101001010110 3
b10101001010110 H
b10101001010110 O
b1100100000000001 2
b1100100000000001 Y
b1100100000000001 `
b1000001110010010 4
b1000001110010010 7
b1000001110010010 >
b101000 k
1"
#540
0"
#545
b1101 F
0E
b11100100101 D
b1 G
b111001001010 ?
b1101 h
0g
b1001000000000011 f
b1 i
b10010000000000110 a
b1101 W
1V
b101010010101101 U
b1010100101011011 P
b1 X
b1000001110010010 !
b1000001110010010 6
b11100100101 4
b11100100101 7
b11100100101 >
b1001000000000011 2
b1001000000000011 Y
b1001000000000011 `
b101010010101101 3
b101010010101101 H
b101010010101101 O
b101001 k
1"
#550
0"
#555
1V
b1101 W
b1010100101011011 U
b10101001010110111 P
b1 X
b1101 h
0g
b10000000000110 f
b1 i
b100000000001100 a
0E
b1101 F
b111001001010 D
b1110010010100 ?
b1 G
b1001000000000011 !
b1001000000000011 6
b1010100101011011 3
b1010100101011011 H
b1010100101011011 O
b10000000000110 2
b10000000000110 Y
b10000000000110 `
b111001001010 4
b111001001010 7
b111001001010 >
b101010 k
1"
#560
0"
#565
0E
b1101 F
b1110010010100 D
b11100100101000 ?
b1 G
1g
b1101 h
b100000000001100 f
b1000000000011001 a
b1 i
b1101 W
0V
b101001010110111 U
b1 X
b1010010101101110 P
b10000000000110 !
b10000000000110 6
b1110010010100 4
b1110010010100 7
b1110010010100 >
b100000000001100 2
b100000000001100 Y
b100000000001100 `
b101001010110111 3
b101001010110111 H
b101001010110111 O
b101011 k
1"
#570
0"
#575
b1101 W
0V
b1010010101101110 U
b10100101011011100 P
b1 X
b1101 h
0g
b1000000000011001 f
b10000000000110010 a
b1 i
b1101 F
1E
b11100100101000 D
b111001001010001 ?
b1 G
b100000000001100 !
b100000000001100 6
b1010010101101110 3
b1010010101101110 H
b1010010101101110 O
b1000000000011001 2
b1000000000011001 Y
b1000000000011001 `
b11100100101000 4
b11100100101000 7
b11100100101000 >
b101100 k
1"
#580
0"
#585
0E
b1101 F
b111001001010001 D
b1110010010100010 ?
b1 G
0g
b1101 h
b110010 f
b1 i
b1100100 a
1V
b1101 W
b100101011011100 U
b1 X
b1001010110111001 P
b11100100101000 !
b11100100101000 6
b111001001010001 4
b111001001010001 7
b111001001010001 >
b110010 2
b110010 Y
b110010 `
b100101011011100 3
b100101011011100 H
b100101011011100 O
b101101 k
1"
#590
0"
#595
b1101 W
1V
b1001010110111001 U
b10010101101110011 P
b1 X
b1101 h
b1100100 f
b11001000 a
b1 i
b1101 F
0E
b1110010010100010 D
b11100100101000100 ?
b1 G
b111001001010001 !
b111001001010001 6
b1001010110111001 3
b1001010110111001 H
b1001010110111001 O
b1100100 2
b1100100 Y
b1100100 `
b1110010010100010 4
b1110010010100010 7
b1110010010100010 >
b101110 k
1"
#600
0"
#605
1E
b1101 F
b1100100101000100 D
b1 G
b11001001010001001 ?
0g
b1101 h
b11001000 f
b110010000 a
b1 i
1V
b1101 W
b10101101110011 U
b1 X
b101011011100111 P
b1100100 !
b1100100 6
b1100100101000100 4
b1100100101000100 7
b1100100101000100 >
b11001000 2
b11001000 Y
b11001000 `
b10101101110011 3
b10101101110011 H
b10101101110011 O
b101111 k
1"
#610
0"
#615
b1101 W
0V
b101011011100111 U
b1010110111001110 P
b1 X
0g
b1101 h
b110010000 f
b1100100000 a
b1 i
b1101 F
1E
b1001001010001001 D
b1 G
b10010010100010011 ?
b11001000 !
b11001000 6
b101011011100111 3
b101011011100111 H
b101011011100111 O
b110010000 2
b110010000 Y
b110010000 `
b1001001010001001 4
b1001001010001001 7
b1001001010001001 >
b110000 k
1"
#620
0"
#625
0E
b1101 F
b10010100010011 D
b1 G
b100101000100110 ?
b1101 h
b1100100000 f
b11001000000 a
b1 i
b1101 W
1V
b1010110111001110 U
b10101101110011101 P
b1 X
b110010000 !
b110010000 6
b10010100010011 4
b10010100010011 7
b10010100010011 >
b1100100000 2
b1100100000 Y
b1100100000 `
b1010110111001110 3
b1010110111001110 H
b1010110111001110 O
b110001 k
1"
#630
0"
#635
b1101 W
0V
b101101110011101 U
b1 X
b1011011100111010 P
b1101 h
b11001000000 f
b110010000000 a
b1 i
0E
b1101 F
b100101000100110 D
b1001010001001100 ?
b1 G
b10010100010011 !
b10010100010011 6
b101101110011101 3
b101101110011101 H
b101101110011101 O
b11001000000 2
b11001000000 Y
b11001000000 `
b100101000100110 4
b100101000100110 7
b100101000100110 >
b110010 k
1"
#640
0"
#645
1E
b1101 F
b1001010001001100 D
b10010100010011001 ?
b1 G
0g
b1101 h
b110010000000 f
b1100100000000 a
b1 i
b1101 W
1V
b1011011100111010 U
b10110111001110101 P
b1 X
b11001000000 !
b11001000000 6
b1001010001001100 4
b1001010001001100 7
b1001010001001100 >
b110010000000 2
b110010000000 Y
b110010000000 `
b1011011100111010 3
b1011011100111010 H
b1011011100111010 O
b110011 k
1"
#650
0"
#655
0V
b1101 W
b110111001110101 U
b1 X
b1101110011101010 P
0g
b1101 h
b1100100000000 f
b11001000000000 a
b1 i
0E
b1101 F
b10100010011001 D
b1 G
b101000100110010 ?
b1001010001001100 !
b1001010001001100 6
b110111001110101 3
b110111001110101 H
b110111001110101 O
b1100100000000 2
b1100100000000 Y
b1100100000000 `
b10100010011001 4
b10100010011001 7
b10100010011001 >
b110100 k
1"
#660
0"
#665
0E
b1101 F
b101000100110010 D
b1010001001100100 ?
b1 G
b1101 h
0g
b11001000000000 f
b110010000000000 a
b1 i
1V
b1101 W
b1101110011101010 U
b11011100111010101 P
b1 X
b1100100000000 !
b1100100000000 6
b101000100110010 4
b101000100110010 7
b101000100110010 >
b11001000000000 2
b11001000000000 Y
b11001000000000 `
b1101110011101010 3
b1101110011101010 H
b1101110011101010 O
b110101 k
1"
#670
0"
#675
1V
b1101 W
b1011100111010101 U
b1 X
b10111001110101011 P
b1101 h
1g
b110010000000000 f
b1100100000000001 a
b1 i
b1101 F
1E
b1010001001100100 D
b10100010011001001 ?
b1 G
b101000100110010 !
b101000100110010 6
b1011100111010101 3
b1011100111010101 H
b1011100111010101 O
b110010000000000 2
b110010000000000 Y
b110010000000000 `
b1010001001100100 4
b1010001001100100 7
b1010001001100100 >
b110110 k
1"
#680
0"
#685
b1101 F
0E
b100010011001001 D
b1 G
b1000100110010010 ?
b1101 h
1g
b1100100000000001 f
b11001000000000011 a
b1 i
1V
b1101 W
b111001110101011 U
b1 X
b1110011101010111 P
b110010000000000 !
b110010000000000 6
b100010011001001 4
b100010011001001 7
b100010011001001 >
b1100100000000001 2
b1100100000000001 Y
b1100100000000001 `
b111001110101011 3
b111001110101011 H
b111001110101011 O
b110111 k
1"
#690
0"
