MPEI_Magistracy/Term_two/ASIC_design/FIFO/dump.vcd
$date
	Fri May 31 14:03:58 2024
$end
$version
	Icarus Verilog
$end
$timescale
	1ps
$end
$scope module tb $end
$var reg 8 ! \mem_tb[0] [7:0] $end
$upscope $end
$scope module tb $end
$var reg 8 " \mem_tb[1] [7:0] $end
$upscope $end
$scope module tb $end
$var reg 8 # \mem_tb[2] [7:0] $end
$upscope $end
$scope module tb $end
$var reg 8 $ \mem_tb[3] [7:0] $end
$upscope $end
$scope module tb $end
$var reg 8 % \mem_tb[4] [7:0] $end
$upscope $end
$scope module tb $end
$var reg 8 & \mem_tb[5] [7:0] $end
$upscope $end
$scope module tb $end
$var reg 8 ' \mem_tb[6] [7:0] $end
$upscope $end
$scope module tb $end
$var reg 8 ( \mem_tb[7] [7:0] $end
$upscope $end
$scope module tb $end
$var reg 8 ) \mem_tb[8] [7:0] $end
$upscope $end
$scope module tb $end
$var reg 8 * \mem_tb[9] [7:0] $end
$upscope $end
$scope module tb $end
$var reg 8 + \mem_tb[10] [7:0] $end
$upscope $end
$scope module tb $end
$var reg 8 , \mem_tb[11] [7:0] $end
$upscope $end
$scope module tb $end
$var reg 8 - \mem_tb[12] [7:0] $end
$upscope $end
$scope module tb $end
$var reg 8 . \mem_tb[13] [7:0] $end
$upscope $end
$scope module tb $end
$var reg 8 / \mem_tb[14] [7:0] $end
$upscope $end
$scope module tb $end
$var reg 8 0 \mem_tb[15] [7:0] $end
$upscope $end
$scope module tb $end
$var wire 1 1 wfull_o $end
$var wire 1 2 rempty_o $end
$var wire 8 3 rdata_o [7:0] $end
$var wire 1 4 arempty_o $end
$var parameter 32 5 ADDRSIZE $end
$var parameter 32 6 DATASIZE $end
$var reg 1 7 rclk_i $end
$var reg 1 8 rinc_i $end
$var reg 1 9 rrst_n_i $end
$var reg 1 : wclk_i $end
$var reg 8 ; wdata_i [7:0] $end
$var reg 1 < winc_i $end
$var reg 1 = wrst_n_i $end
$var integer 32 > MAX_RST_TIME [31:0] $end
$var integer 32 ? MIN_RST_TIME [31:0] $end
$var integer 32 @ QTY_DATA [31:0] $end
$var integer 32 A TEST [31:0] $end
$var integer 32 B TGL_RRST_N [31:0] $end
$var integer 32 C TGL_WRST_N [31:0] $end
$var integer 32 D cnt_data_rec [31:0] $end
$var integer 32 E cnt_data_send [31:0] $end
$var integer 32 F idx [31:0] $end
$var integer 32 G rrst_time [31:0] $end
$var integer 32 H wrst_time [31:0] $end
$scope module UUT $end
$var wire 1 7 RCLK_I $end
$var wire 1 8 RINC_I $end
$var wire 1 9 RRST_N_I $end
$var wire 1 : WCLK_I $end
$var wire 8 I WDATA_I [7:0] $end
$var wire 1 < WINC_I $end
$var wire 1 = WRST_N_I $end
$var wire 5 J wq2_rptr_w [4:0] $end
$var wire 5 K wptr_w [4:0] $end
$var wire 1 L wfull_w $end
$var wire 4 M waddr_w [3:0] $end
$var wire 5 N rq2_wptr_w [4:0] $end
$var wire 5 O rptr_w [4:0] $end
$var wire 4 P raddr_w [3:0] $end
$var wire 1 2 REMPTY_O $end
$var wire 8 Q RDATA_O [7:0] $end
$var wire 1 4 AREMPTY_O $end
$var parameter 32 R ADDRSIZE $end
$var parameter 32 S DATASIZE $end
$var reg 1 1 WFULL_O $end
$var reg 1 T wclken_w $end
$scope module fifo_mem_inst $end
$var wire 1 7 rclk $end
$var wire 1 8 rclken $end
$var wire 8 U rdata [7:0] $end
$var wire 1 : wclk $end
$var wire 1 T wclken $end
$var wire 8 V wdata [7:0] $end
$var wire 1 L wfull $end
$var wire 4 W waddr [3:0] $end
$var wire 4 X raddr [3:0] $end
$var parameter 32 Y ADDRSIZE $end
$var parameter 32 Z DATASIZE $end
$var parameter 36 [ DEPTH $end
$var reg 8 \ rdata_r [7:0] $end
$upscope $end
$scope module rptr_empty_inst $end
$var wire 1 7 rclk $end
$var wire 5 ] rgraynext [4:0] $end
$var wire 5 ^ rgraynextm1 [4:0] $end
$var wire 1 8 rinc $end
$var wire 1 9 rrst_n $end
$var wire 5 _ rq2_wptr [4:0] $end
$var wire 1 ` rempty_val $end
$var wire 5 a rbinnext [4:0] $end
$var wire 4 b raddr [3:0] $end
$var wire 1 c arempty_val $end
$var parameter 32 d ADDRSIZE $end
$var reg 1 4 arempty $end
$var reg 5 e rbin [4:0] $end
$var reg 1 2 rempty $end
$var reg 5 f rptr [4:0] $end
$upscope $end
$scope module sync_r2w_inst $end
$var wire 5 g rptr [4:0] $end
$var wire 1 : wclk $end
$var wire 1 = wrst_n $end
$var parameter 32 h ADDRSIZE $end
$var reg 5 i wq1_rptr [4:0] $end
$var reg 5 j wq2_rptr [4:0] $end
$upscope $end
$scope module sync_w2r_inst $end
$var wire 1 : rclk $end
$var wire 1 = rrst_n $end
$var wire 5 k wptr [4:0] $end
$var parameter 32 l ADDRSIZE $end
$var reg 5 m rq1_wptr [4:0] $end
$var reg 5 n rq2_wptr [4:0] $end
$upscope $end
$scope module wptr_full_inst $end
$var wire 1 : wclk $end
$var wire 5 o wgraynext [4:0] $end
$var wire 5 p wgraynextp1 [4:0] $end
$var wire 1 < winc $end
$var wire 5 q wq2_rptr [4:0] $end
$var wire 1 = wrst_n $end
$var wire 1 r wfull_val $end
$var wire 5 s wbinnext [4:0] $end
$var wire 4 t waddr [3:0] $end
$var wire 1 u awfull_val $end
$var parameter 32 v ADDRSIZE $end
$var reg 1 w awfull $end
$var reg 5 x wbin [4:0] $end
$var reg 1 L wfull $end
$var reg 5 y wptr [4:0] $end
$upscope $end
$upscope $end
$scope task en_test $end
$upscope $end
$scope task gen_clk_rd $end
$upscope $end
$scope task gen_clk_wr $end
$upscope $end
$scope task gen_data $end
$upscope $end
$scope task gen_rrst_n $end
$upscope $end
$scope task gen_wrst_n $end
$upscope $end
$scope task rd_data $end
$upscope $end
$upscope $end
$enddefinitions $end
$comment Show the parameter values. $end
$dumpall
b100 v
b100 l
b100 h
b100 d
b10000 [
b1000 Z
b100 Y
b1000 S
b100 R
b1000 6
b100 5
$end
#0
$dumpvars
b0 y
b0 x
0w
0u
b0 t
b1 s
0r
b0 q
b11 p
b1 o
b0 n
b0 m
b0 k
b0 j
b0 i
b0 g
b0 f
b0 e
0c
b0 b
b0 a
1`
b0 _
b1 ^
b0 ]
bx \
b0 X
b0 W
b0 V
bx U
1T
bx Q
b0 P
b0 O
b0 N
b0 M
0L
b0 K
b0 J
b0 I
b0 H
b0 G
b10000 F
b0 E
b0 D
b1 C
b1 B
b1 A
b101 @
b1100100 ?
b10010110 >
0=
1<
b0 ;
0:
09
08
07
04
bx 3
12
01
bx 0
bx /
bx .
bx -
bx ,
bx +
bx *
bx )
bx (
bx '
bx &
bx %
bx $
bx #
bx "
bx !
$end
#10
1=
19
#20
0=
09
#25
17
#30
1=
19
#35
b1 M
b1 W
b1 t
b10 p
b11 o
b10 s
b1 x
b1 K
b1 k
b1 y
1:
#50
07
#60
b1 E
b10010010 ;
b10010010 I
b10010010 V
0:
#75
17
#85
b10 M
b10 W
b10 t
b110 p
b10 o
b1 m
b11 s
b10 x
b11 K
b11 k
b11 y
1:
#100
07
#110
b10 E
b1000000 ;
b1000000 I
b1000000 V
0:
#125
17
#135
b11 M
b11 W
b11 t
b111 p
b110 o
b100 s
b11 x
b10 K
b10 k
b10 y
1c
0`
b1 N
b1 _
b1 n
b11 m
1:
#150
07
#160
b11 E
b100 ;
b100 I
b100 V
0:
#175
02
14
17
#185
b100 M
b100 W
b100 t
b101 p
b111 o
0c
b11 N
b11 _
b11 n
b10 m
b101 s
b100 x
b110 K
b110 k
b110 y
1:
#200
07
#210
b100 E
b110001 ;
b110001 I
b110001 V
0:
#225
04
17
#235
b101 M
b101 W
b101 t
b100 p
b101 o
b110 s
b101 x
b111 K
b111 k
b111 y
b10 N
b10 _
b10 n
b110 m
1:
#250
07
#260
b101 E
b10000110 ;
b10000110 I
b10000110 V
0:
#275
17
#285
b110 M
b110 W
b110 t
b1100 p
b100 o
b110 N
b110 _
b110 n
b111 m
b111 s
b110 x
b101 K
b101 k
b101 y
1:
#300
07
#310
b110 E
b11000110 ;
b11000110 I
b11000110 V
0:
#325
17
#335
b111 M
b111 W
b111 t
b1101 p
b1100 o
b1000 s
b111 x
b100 K
b100 k
b100 y
b111 N
b111 _
b111 n
b101 m
1:
#350
07
#360
b111 E
b110010 ;
b110010 I
b110010 V
0:
#375
17
#385
b1000 M
b1000 W
b1000 t
b1111 p
b1101 o
b101 N
b101 _
b101 n
b100 m
b1001 s
b1000 x
b1100 K
b1100 k
b1100 y
1:
#400
07
#410
b1000 E
b1001 ;
b1001 I
b1001 V
0:
#425
17
#435
b1001 M
b1001 W
b1001 t
b1110 p
b1111 o
b1010 s
b1001 x
b1101 K
b1101 k
b1101 y
b100 N
b100 _
b100 n
b1100 m
1:
#450
07
#460
b1001 E
b10000000 ;
b10000000 I
b10000000 V
0:
#475
17
#485
b1010 M
b1010 W
b1010 t
b1010 p
b1110 o
b1100 N
b1100 _
b1100 n
b1101 m
b1011 s
b1010 x
b1111 K
b1111 k
b1111 y
1:
#500
07
#510
b1010 E
b10000110 ;
b10000110 I
b10000110 V
0:
#525
17
#535
b1011 M
b1011 W
b1011 t
b1011 x
b1110 K
b1110 k
b1110 y
b1101 N
b1101 _
b1101 n
b1111 m
b11 ^
b1 ]
b1010 p
b1110 o
b1 a
b1011 s
0T
18
0<
1:
#550
07
#560
b1011 E
b10111011 ;
b10111011 I
b10111011 V
0:
#575
b1 P
b1 X
b1 b
b10 ^
b11 ]
b0 3
b0 Q
b0 U
b0 \
b10 a
b1 e
b1 O
b1 f
b1 g
b1 D
17
#585
b1111 N
b1111 _
b1111 n
b1110 m
b1 i
1:
#600
07
#610
b1100 E
b10011110 ;
b10011110 I
b10011110 V
0:
#625
b10 P
b10 X
b10 b
b110 ^
b10 ]
b10010010 3
b10010010 Q
b10010010 U
b10010010 \
b11 a
b10 e
b11 O
b11 f
b11 g
b10 D
17
#635
b1 J
b1 j
b1 q
b11 i
b1110 N
b1110 _
b1110 n
1:
#650
07
#660
b1101 E
b11110110 ;
b11110110 I
b11110110 V
0:
#675
b11 P
b11 X
b11 b
b111 ^
b110 ]
b1000000 3
b1000000 Q
b1000000 U
b1000000 \
b100 a
b11 e
b10 O
b10 f
b10 g
b11 D
17
#685
b11 J
b11 j
b11 q
b10 i
1:
#700
07
#710
b1110 E
b11000110 ;
b11000110 I
b11000110 V
0:
#725
b100 P
b100 X
b100 b
b101 ^
b111 ]
b100 3
b100 Q
b100 U
b100 \
b101 a
b100 e
b110 O
b110 f
b110 g
b100 D
17
#735
b10 J
b10 j
b10 q
b110 i
1:
#750
07
#760
b1111 E
b11111100 ;
b11111100 I
b11111100 V
0:
#775
b101 P
b101 X
b101 b
b100 ^
b101 ]
b110001 3
b110001 Q
b110001 U
b110001 \
b110 a
b101 e
b111 O
b111 f
b111 g
b101 D
17
#785
b110 J
b110 j
b110 q
b111 i
1:
#800
07
#810
b10000 E
b1100011 ;
b1100011 I
b1100011 V
0:
#825
b110 P
b110 X
b110 b
b1100 ^
b100 ]
b10000110 3
b10000110 Q
b10000110 U
b10000110 \
b111 a
b110 e
b101 O
b101 f
b101 g
b110 D
17
#835
b111 J
b111 j
b111 q
b101 i
1:
#850
07
#860
b10001 E
b1100010 ;
b1100010 I
b1100010 V
0:
#875
b111 P
b111 X
b111 b
b1101 ^
b1100 ]
b11000110 3
b11000110 Q
b11000110 U
b11000110 \
b1000 a
b111 e
b100 O
b100 f
b100 g
b111 D
17
#885
b101 J
b101 j
b101 q
b100 i
1:
#900
07
#910
b10010 E
b1010101 ;
b1010101 I
b1010101 V
0:
#925
b1000 P
b1000 X
b1000 b
0c
b1111 ^
b1101 ]
b110010 3
b110010 Q
b110010 U
b110010 \
b1001 a
b1000 e
b1100 O
b1100 f
b1100 g
b1000 D
17
#935
b100 J
b100 j
b100 q
b1100 i
1:
#950
07
#960
b10011 E
b11110010 ;
b11110010 I
b11110010 V
0:
#975
b1001 P
b1001 X
b1001 b
1c
b1110 ^
0`
b1111 ]
b1001 3
b1001 Q
b1001 U
b1001 \
b1010 a
b1001 e
b1101 O
b1101 f
b1101 g
b1001 D
17
#985
b1100 J
b1100 j
b1100 q
b1101 i
1:
#1000
07
#1010
b10100 E
b111011 ;
b111011 I
b111011 V
0:
#1025
b1010 P
b1010 X
b1010 b
0c
b1010 ^
1`
b1110 ]
b10000000 3
b10000000 Q
b10000000 U
b10000000 \
b1011 a
b1010 e
b1111 O
b1111 f
b1111 g
14
b1010 D
17
#1035
b1101 J
b1101 j
b1101 q
b1111 i
1c
b1110 ^
0`
b1111 ]
b1010 a
08
1:
#1050
07
#1060
b10101 E
b1001 ;
b1001 I
b1001 V
0:
#1075
17
#1085
b1111 J
b1111 j
b1111 q
1:
#1100
07
#1110
b10110 E
b11000111 ;
b11000111 I
b11000111 V
0:
#1125
17
#1135
1:
#1150
07
#1160
b10111 E
b11111001 ;
b11111001 I
b11111001 V
0:
#1175
17
#1185
1:
#1200
07
#1210
b11000 E
b1100111 ;
b1100111 I
b1100111 V
0:
#1225
17
#1235
1:
#1250
07
#1260
b11001 E
b1110100 ;
b1110100 I
b1110100 V
0:
#1275
17
#1285
1:
#1300
07
#1310
b11010 E
b1100010 ;
b1100010 I
b1100010 V
0:
#1325
17
#1335
1:
#1350
07
#1360
b11011 E
b10101110 ;
b10101110 I
b10101110 V
0:
#1375
17
#1385
1:
#1400
07
#1410
b11100 E
b1011110 ;
b1011110 I
b1011110 V
0:
#1425
17
#1435
1:
#1450
07
#1460
b11101 E
b10110 ;
b10110 I
b10110 V
0:
#1475
17
#1485
1:
#1500
07
#1510
b11110 E
b110010 ;
b110010 I
b110010 V
0:
#1525
17
#1535
1:
#1550
07
#1560
b11111 E
b110001 ;
b110001 I
b110001 V
0:
#1575
17
#1585
1:
#1600
07
#1610
b100000 E
b10000101 ;
b10000101 I
b10000101 V
0:
#1625
17
#1635
1:
#1650
07
#1660
b100001 E
b1000000 ;
b1000000 I
b1000000 V
0:
#1675
17
#1685
1:
#1700
07
#1710
b100010 E
b10010000 ;
b10010000 I
b10010000 V
0:
#1725
17
#1735
1:
#1750
07
#1760
b100011 E
b11010101 ;
b11010101 I
b11010101 V
0:
#1775
17
#1785
1:
#1800
07
#1810
b100100 E
b1001110 ;
b1001110 I
b1001110 V
0:
#1825
17
#1835
1:
#1850
07
#1860
b100101 E
b1001011 ;
b1001011 I
b1001011 V
0:
#1875
17
#1885
1:
#1900
07
#1910
b100110 E
b1001 ;
b1001 I
b1001 V
0:
#1925
17
#1935
1:
#1950
07
#1960
b100111 E
b110 ;
b110 I
b110 V
0:
#1975
17
#1985
1:
#2000
07
#2010
b101000 E
b101001 ;
b101001 I
b101001 V
0:
#2025
17
#2035
1:
#2050
07
#2060
b101001 E
b10110101 ;
b10110101 I
b10110101 V
0:
#2075
17
#2085
1:
#2100
07
#2110
b101010 E
b1101010 ;
b1101010 I
b1101010 V
0:
#2125
17
#2135
1:
#2150
07
#2160
b101011 E
b1 ;
b1 I
b1 V
0:
#2175
17
#2185
1:
#2200
07
#2210
b101100 E
b1010111 ;
b1010111 I
b1010111 V
0:
#2225
17
#2235
1:
#2250
07
#2260
b101101 E
b10001110 ;
b10001110 I
b10001110 V
0:
#2275
17
#2285
1:
#2300
07
#2310
b101110 E
b1100111 ;
b1100111 I
b1100111 V
0:
#2325
17
#2335
1:
#2350
07
#2360
b101111 E
b10010001 ;
b10010001 I
b10010001 V
0:
#2375
17
#2385
1:
#2400
07
#2410
b110000 E
b10000101 ;
b10000101 I
b10000101 V
0:
#2425
17
#2435
1:
#2450
07
#2460
b110001 E
b1100101 ;
b1100101 I
b1100101 V
0:
#2475
17
#2485
1:
#2500
07
#2510
b110010 E
b11110 ;
b11110 I
b11110 V
0:
#2525
17
#2535
1:
#2550
07
#2560
b110011 E
b11111001 ;
b11111001 I
b11111001 V
0:
#2575
17
#2585
1:
#2600
07
#2610
b110100 E
b11000101 ;
b11000101 I
b11000101 V
0:
#2625
17
#2635
1:
#2650
07
#2660
b110101 E
b10100000 ;
b10100000 I
b10100000 V
0:
#2675
17
#2685
1:
#2700
07
#2710
b110110 E
b1101100 ;
b1101100 I
b1101100 V
0:
#2725
17
#2735
1:
#2750
07
#2760
b110111 E
b10111100 ;
b10111100 I
b10111100 V
0:
#2775
17
#2785
1:
#2800
07
#2810
b111000 E
b1000100 ;
b1000100 I
b1000100 V
0:
#2825
17
#2835
1:
#2850
07
#2860
b111001 E
b11110101 ;
b11110101 I
b11110101 V
0:
#2875
17
#2885
1:
#2900
07
#2910
b111010 E
b11011011 ;
b11011011 I
b11011011 V
0:
#2925
17
#2935
1:
#2950
07
#2960
b111011 E
b11100011 ;
b11100011 I
b11100011 V
0:
#2975
17
#2985
1:
#3000
07
#3010
b111100 E
b11010111 ;
b11010111 I
b11010111 V
0:
#3025
17
#3035
1:
#3050
07
#3060
b111101 E
b1011110 ;
b1011110 I
b1011110 V
0:
#3075
17
#3085
1:
#3100
07
#3110
b111110 E
b10010101 ;
b10010101 I
b10010101 V
0:
#3125
17
#3135
1:
#3150
07
#3160
b111111 E
b101 ;
b101 I
b101 V
0:
#3175
17
#3185
1:
#3200
07
#3210
b1000000 E
b111000 ;
b111000 I
b111000 V
0:
#3225
17
#3235
1:
#3250
07
#3260
b1000001 E
b11000010 ;
b11000010 I
b11000010 V
0:
#3275
17
#3285
1:
#3300
07
#3310
b1000010 E
b10100111 ;
b10100111 I
b10100111 V
0:
#3325
17
#3335
1:
#3350
07
#3360
b1000011 E
b11101 ;
b11101 I
b11101 V
0:
#3375
17
#3385
1:
#3400
07
#3410
b1000100 E
b10011101 ;
b10011101 I
b10011101 V
0:
#3425
17
#3435
1:
#3450
07
#3460
b1000101 E
b111111 ;
b111111 I
b111111 V
0:
#3475
17
#3485
1:
#3500
07
#3510
b1000110 E
b10001010 ;
b10001010 I
b10001010 V
0:
#3525
17
#3535
1:
#3550
07
#3560
b1000111 E
b11111000 ;
b11111000 I
b11111000 V
0:
#3575
17
#3585
1:
#3600
07
#3610
b1001000 E
b11101100 ;
b11101100 I
b11101100 V
0:
#3625
17
#3635
1:
#3650
07
#3660
b1001001 E
b10110001 ;
b10110001 I
b10110001 V
0:
#3675
17
#3685
1:
#3700
07
#3710
b1001010 E
b10100110 ;
b10100110 I
b10100110 V
0:
#3725
17
#3735
1:
#3750
07
#3760
b1001011 E
b11001111 ;
b11001111 I
b11001111 V
0:
#3775
17
#3785
1:
#3800
07
#3810
b1001100 E
b11000111 ;
b11000111 I
b11000111 V
0:
#3825
17
#3835
1:
#3850
07
#3860
b1001101 E
b11111100 ;
b11111100 I
b11111100 V
0:
#3875
17
#3885
1:
#3900
07
#3910
b1001110 E
b1011011 ;
b1011011 I
b1011011 V
0:
#3925
17
#3935
1:
#3950
07
#3960
b1001111 E
b1001111 ;
b1001111 I
b1001111 V
0:
#3975
17
#3985
1:
#4000
07
#4010
b1010000 E
b101110 ;
b101110 I
b101110 V
0:
#4025
17
#4035
1:
#4050
07
#4060
b1010001 E
b101101 ;
b101101 I
b101101 V
0:
#4075
17
#4085
1:
#4100
07
#4110
b1010010 E
b11000100 ;
b11000100 I
b11000100 V
0:
#4125
17
#4135
1:
#4150
07
#4160
b1010011 E
b100100 ;
b100100 I
b100100 V
0:
#4175
17
#4185
1:
#4200
07
#4210
b1010100 E
b1101000 ;
b1101000 I
b1101000 V
0:
#4225
17
#4235
1:
#4250
07
#4260
b1010101 E
b1101011 ;
b1101011 I
b1101011 V
0:
#4275
17
#4285
1:
#4300
07
#4310
b1010110 E
b101000 ;
b101000 I
b101000 V
0:
#4325
17
#4335
1:
#4350
07
#4360
b1010111 E
b11001011 ;
b11001011 I
b11001011 V
0:
#4375
17
#4385
1:
#4400
07
#4410
b1011000 E
b10000110 ;
b10000110 I
b10000110 V
0:
#4425
17
#4435
1:
#4450
07
#4460
b1011001 E
b1100001 ;
b1100001 I
b1100001 V
0:
#4475
17
#4485
1:
#4500
07
#4510
b1011010 E
b11100100 ;
b11100100 I
b11100100 V
0:
#4525
17
#4535
1:
#4550
07
#4560
b1011011 E
b111011 ;
b111011 I
b111011 V
0:
#4575
17
#4585
1:
#4600
07
#4610
b1011100 E
b10011110 ;
b10011110 I
b10011110 V
0:
#4625
17
#4635
1:
#4650
07
#4660
b1011101 E
b10001001 ;
b10001001 I
b10001001 V
0:
#4675
17
#4685
1:
#4700
07
#4710
b1011110 E
b111111 ;
b111111 I
b111111 V
0:
#4725
17
#4735
1:
#4750
07
#4760
b1011111 E
b10110110 ;
b10110110 I
b10110110 V
0:
#4775
17
#4785
1:
#4800
07
#4810
b1100000 E
b10011100 ;
b10011100 I
b10011100 V
0:
#4825
17
#4835
1:
#4850
07
#4860
b1100001 E
b10001111 ;
b10001111 I
b10001111 V
0:
#4875
17
#4885
1:
#4900
07
#4910
b1100010 E
b1101001 ;
b1101001 I
b1101001 V
0:
#4925
17
#4935
1:
#4950
07
#4960
b1100011 E
b11000010 ;
b11000010 I
b11000010 V
0:
#4975
17
#4985
1:
#5000
07
#5010
b1100100 E
b111100 ;
b111100 I
b111100 V
0:
#5025
17
#5035
1:
#5050
07
#5060
b1100101 E
b10101101 ;
b10101101 I
b10101101 V
0:
#5075
17
#5085
1:
#5100
07
#5110
b1100110 E
b10100100 ;
b10100100 I
b10100100 V
0:
#5125
17
#5135
1:
#5150
07
#5160
b1100111 E
b11111 ;
b11111 I
b11111 V
0:
#5175
17
#5185
1:
#5200
07
#5210
b1101000 E
b10010101 ;
b10010101 I
b10010101 V
0:
#5225
17
#5235
1:
#5250
07
#5260
b1101001 E
b10101100 ;
b10101100 I
b10101100 V
0:
#5275
17
#5285
1:
#5300
07
#5310
b1101010 E
b1000011 ;
b1000011 I
b1000011 V
0:
#5325
17
#5335
1:
#5350
07
#5360
b1101011 E
b1000111 ;
b1000111 I
b1000111 V
0:
#5375
17
#5385
1:
#5400
07
#5410
b1101100 E
b1001110 ;
b1001110 I
b1001110 V
0:
#5425
17
#5435
1:
#5450
07
#5460
b1101101 E
b11111101 ;
b11111101 I
b11111101 V
0:
#5475
17
#5485
1:
#5500
07
#5510
b1101110 E
b10011 ;
b10011 I
b10011 V
0:
#5525
17
#5535
1:
#5550
07
#5560
b1101111 E
b10111001 ;
b10111001 I
b10111001 V
0:
#5575
17
#5585
1:
#5600
07
#5610
b1110000 E
b1010001 ;
b1010001 I
b1010001 V
0:
#5625
17
#5635
1:
#5650
07
#5660
b1110001 E
b10111 ;
b10111 I
b10111 V
0:
#5675
17
#5685
1:
#5700
07
#5710
b1110010 E
b1011001 ;
b1011001 I
b1011001 V
0:
#5725
17
#5735
1:
#5750
07
#5760
b1110011 E
b101111 ;
b101111 I
b101111 V
0:
#5775
17
#5785
1:
#5800
07
#5810
b1110100 E
b10100010 ;
b10100010 I
b10100010 V
0:
#5825
17
#5835
1:
#5850
07
#5860
b1110101 E
b11111011 ;
b11111011 I
b11111011 V
0:
#5875
17
#5885
1:
#5900
07
#5910
b1110110 E
b1100101 ;
b1100101 I
b1100101 V
0:
#5925
17
#5935
1:
#5950
07
#5960
b1110111 E
b1110011 ;
b1110011 I
b1110011 V
0:
#5975
17
#5985
1:
#6000
07
#6010
b1111000 E
b10101101 ;
b10101101 I
b10101101 V
0:
#6025
17
#6035
1:
#6050
07
#6060
b1111001 E
b10010100 ;
b10010100 I
b10010100 V
0:
#6075
17
#6085
1:
#6100
07
#6110
b1111010 E
b1110110 ;
b1110110 I
b1110110 V
0:
#6125
17
#6135
1:
#6150
07
#6160
b1111011 E
b1101101 ;
b1101101 I
b1101101 V
0:
#6175
17
#6185
1:
#6200
07
#6210
b1111100 E
b110010 ;
b110010 I
b110010 V
0:
#6225
17
#6235
1:
#6250
07
#6260
b1111101 E
b1011010 ;
b1011010 I
b1011010 V
0:
#6275
17
#6285
1:
#6300
07
#6310
b1111110 E
b1101111 ;
b1101111 I
b1101111 V
0:
#6325
17
#6335
1:
#6350
07
#6360
b1111111 E
b10111100 ;
b10111100 I
b10111100 V
0:
#6375
17
#6385
1:
#6400
07
#6410
b10000000 E
b10100010 ;
b10100010 I
b10100010 V
0:
#6425
17
#6435
1:
#6450
07
#6460
b10000001 E
b1101000 ;
b1101000 I
b1101000 V
0:
#6475
17
#6485
1:
#6500
07
#6510
b10000010 E
b10010101 ;
b10010101 I
b10010101 V
0:
#6525
17
#6535
1:
#6550
07
#6560
b10000011 E
b11010101 ;
b11010101 I
b11010101 V
0:
#6575
17
#6585
1:
#6600
07
#6610
b10000100 E
b10000111 ;
b10000111 I
b10000111 V
0:
#6625
17
#6635
1:
#6650
07
#6660
b10000101 E
b11101110 ;
b11101110 I
b11101110 V
0:
#6675
17
#6685
1:
#6700
07
#6710
b10000110 E
b1001101 ;
b1001101 I
b1001101 V
0:
#6725
17
#6735
1:
#6750
07
#6760
b10000111 E
b1111110 ;
b1111110 I
b1111110 V
0:
#6775
17
#6785
1:
#6800
07
#6810
b10001000 E
b1100001 ;
b1100001 I
b1100001 V
0:
#6825
17
#6835
1:
#6850
07
#6860
b10001001 E
b10101011 ;
b10101011 I
b10101011 V
0:
#6875
17
#6885
1:
#6900
07
#6910
b10001010 E
b10100111 ;
b10100111 I
b10100111 V
0:
#6925
17
#6935
1:
#6950
07
#6960
b10001011 E
b110011 ;
b110011 I
b110011 V
0:
#6975
17
#6985
1:
#7000
07
#7010
b10001100 E
b101 ;
b101 I
b101 V
0:
#7025
17
#7035
1:
#7050
07
#7060
b10001101 E
b11011011 ;
b11011011 I
b11011011 V
0:
#7075
17
#7085
1:
#7100
07
#7110
b10001110 E
b11100 ;
b11100 I
b11100 V
0:
#7125
17
#7135
1:
#7150
07
#7160
b10001111 E
b10111100 ;
b10111100 I
b10111100 V
0:
#7175
17
#7185
1:
#7200
07
#7210
b10010000 E
b1011100 ;
b1011100 I
b1011100 V
0:
#7225
17
#7235
1:
#7250
07
#7260
b10010001 E
b11001010 ;
b11001010 I
b11001010 V
0:
#7275
17
#7285
1:
#7300
07
#7310
b10010010 E
b11001001 ;
b11001001 I
b11001001 V
0:
#7325
17
#7335
1:
#7350
07
#7360
b10010011 E
b10 ;
b10 I
b10 V
0:
#7375
17
#7385
1:
#7400
07
#7410
b10010100 E
b101100 ;
b101100 I
b101100 V
0:
#7425
17
#7435
1:
#7450
07
#7460
b10010101 E
b11101101 ;
b11101101 I
b11101101 V
0:
#7475
17
#7485
1:
#7500
07
#7510
b10010110 E
b100110 ;
b100110 I
b100110 V
0:
#7525
17
#7535
1:
#7550
07
#7560
b10010111 E
b11101100 ;
b11101100 I
b11101100 V
0:
#7575
17
#7585
1:
#7600
07
#7610
b10011000 E
b110110 ;
b110110 I
b110110 V
0:
#7625
17
#7635
1:
#7650
07
#7660
b10011001 E
b111011 ;
b111011 I
b111011 V
0:
#7675
17
#7685
1:
#7700
07
#7710
b10011010 E
b11100101 ;
b11100101 I
b11100101 V
0:
#7725
17
#7735
1:
#7750
07
#7760
b10011011 E
b11011011 ;
b11011011 I
b11011011 V
0:
#7775
17
#7785
1:
#7800
07
#7810
b10011100 E
b11001010 ;
b11001010 I
b11001010 V
0:
#7825
17
#7835
1:
#7850
07
#7860
b10011101 E
b100011 ;
b100011 I
b100011 V
0:
#7875
17
#7885
1:
#7900
07
#7910
b10011110 E
b10000010 ;
b10000010 I
b10000010 V
0:
#7925
17
#7935
1:
#7950
07
#7960
b10011111 E
b11111011 ;
b11111011 I
b11111011 V
0:
#7975
17
#7985
1:
#8000
07
#8010
b10100000 E
b10110100 ;
b10110100 I
b10110100 V
0:
#8025
17
#8035
1:
#8050
07
#8060
b10100001 E
b1011010 ;
b1011010 I
b1011010 V
0:
#8075
17
#8085
1:
#8100
07
#8110
b10100010 E
b11000100 ;
b11000100 I
b11000100 V
0:
#8125
17
#8135
1:
#8150
07
#8160
b10100011 E
b10010100 ;
b10010100 I
b10010100 V
0:
#8175
17
#8185
1:
#8200
07
#8210
b10100100 E
b10110 ;
b10110 I
b10110 V
0:
#8225
17
#8235
1:
#8250
07
#8260
b10100101 E
b1100011 ;
b1100011 I
b1100011 V
0:
#8275
17
#8285
1:
#8300
07
#8310
b10100110 E
b10111 ;
b10111 I
b10111 V
0:
#8325
17
#8335
1:
#8350
07
#8360
b10100111 E
b100 ;
b100 I
b100 V
0:
#8375
17
#8385
1:
#8400
07
#8410
b10101000 E
b10001110 ;
b10001110 I
b10001110 V
0:
#8425
17
#8435
1:
#8450
07
#8460
b10101001 E
b1111110 ;
b1111110 I
b1111110 V
0:
#8475
17
#8485
1:
#8500
07
#8510
b10101010 E
b10010100 ;
b10010100 I
b10010100 V
0:
#8525
17
#8535
1:
#8550
07
#8560
b10101011 E
b1110 ;
b1110 I
b1110 V
0:
#8575
17
#8585
1:
#8600
07
#8610
b10101100 E
b11000011 ;
b11000011 I
b11000011 V
0:
#8625
17
#8635
1:
#8650
07
#8660
b10101101 E
b1101101 ;
b1101101 I
b1101101 V
0:
#8675
17
#8685
1:
#8700
07
#8710
b10101110 E
b11110 ;
b11110 I
b11110 V
0:
#8725
17
#8735
1:
#8750
07
#8760
b10101111 E
b10110011 ;
b10110011 I
b10110011 V
0:
#8775
17
#8785
1:
#8800
07
#8810
b10110000 E
b111000 ;
b111000 I
b111000 V
0:
#8825
17
#8835
1:
#8850
07
#8860
b10110001 E
b111001 ;
b111001 I
b111001 V
0:
#8875
17
#8885
1:
#8900
07
#8910
b10110010 E
b11011101 ;
b11011101 I
b11011101 V
0:
#8925
17
#8935
1:
#8950
07
#8960
b10110011 E
b10101111 ;
b10101111 I
b10101111 V
0:
#8975
17
#8985
1:
#9000
07
