MPEI_Bachelor/bachelor's work/ALU_divider/qqq.vcd
$date
	Wed Jun 21 15:04:25 2023
$end
$version
	Icarus Verilog
$end
$timescale
	1ns
$end
$scope module tb_alu $end
$var wire 1 ! tready $end
$var wire 1 " out $end
$var reg 1 # A $end
$var reg 1 $ B $end
$var reg 1 % clk $end
$var reg 1 & res $end
$var reg 1 ' tvalid $end
$scope module dut_ALU $end
$var wire 1 # A $end
$var wire 1 $ B $end
$var wire 1 % clk $end
$var wire 1 & res $end
$var wire 1 ' tvalid $end
$var wire 1 ( w_load $end
$var wire 1 ) w_ready $end
$var wire 1 * w_ready1 $end
$var wire 1 ! tready $end
$var wire 1 + sign $end
$var wire 1 , ready_stop1 $end
$var wire 1 - ready_stop $end
$var wire 1 . ready $end
$var wire 16 / parall_B [15:0] $end
$var wire 16 0 parall_A [15:0] $end
$var wire 1 " out $end
$var wire 1 1 load_done $end
$var wire 1 2 load1 $end
$var wire 1 3 load $end
$var wire 10 4 fraction [9:0] $end
$var wire 5 5 exponent [4:0] $end
$var wire 16 6 divisible [15:0] $end
$var wire 16 7 divider [15:0] $end
$scope module dut_A $end
$var wire 1 % clk $end
$var wire 1 # din $end
$var wire 1 & res $end
$var wire 1 ' tvalid $end
$var reg 5 8 cnt [4:0] $end
$var reg 16 9 dout [15:0] $end
$var reg 16 : out [15:0] $end
$upscope $end
$scope module dut_B $end
$var wire 1 % clk $end
$var wire 1 $ din $end
$var wire 1 & res $end
$var wire 1 ' tvalid $end
$var reg 5 ; cnt [4:0] $end
$var reg 16 < dout [15:0] $end
$var reg 16 = out [15:0] $end
$upscope $end
$scope module dut_comparator $end
$var wire 16 > A [15:0] $end
$var wire 16 ? B [15:0] $end
$var wire 1 % clk $end
$var wire 1 & res $end
$var reg 16 @ divider [15:0] $end
$var reg 16 A divisible [15:0] $end
$var reg 1 . ready $end
$upscope $end
$scope module dut_div_fraction $end
$var wire 1 % clk $end
$var wire 16 B divider [15:0] $end
$var wire 16 C divisible [15:0] $end
$var wire 1 * ready $end
$var wire 1 & res $end
$var reg 4 D cnt [3:0] $end
$var reg 10 E fraction [9:0] $end
$var reg 1 2 load $end
$var reg 1 , ready_stop $end
$var reg 10 F reg_divider [9:0] $end
$var reg 10 G reg_quotient [9:0] $end
$var reg 10 H remains [9:0] $end
$upscope $end
$scope module dut_out $end
$var wire 1 % clk $end
$var wire 10 I fraction [9:0] $end
$var wire 1 ( load $end
$var wire 1 & res $end
$var wire 1 + sign $end
$var wire 5 J exponent [4:0] $end
$var reg 4 K cnt [3:0] $end
$var reg 16 L dout [15:0] $end
$var reg 1 1 load_done $end
$var reg 1 " out $end
$var reg 1 ! tready $end
$upscope $end
$scope module dut_summator $end
$var wire 1 % clk $end
$var wire 16 M divider [15:0] $end
$var wire 16 N divisible [15:0] $end
$var wire 1 ) ready $end
$var wire 1 & res $end
$var reg 5 O exponent [4:0] $end
$var reg 1 3 load $end
$var reg 1 - ready_stop $end
$var reg 16 P reg_divider [15:0] $end
$var reg 16 Q reg_divisible [15:0] $end
$var reg 1 + sign $end
$upscope $end
$upscope $end
$upscope $end
$enddefinitions $end
$comment Show the parameter values. $end
$dumpall
$end
#0
$dumpvars
bx Q
bx P
bx O
bx N
bx M
bx L
bx K
bx J
bx I
bx H
bx G
bx F
bx E
bx D
bx C
bx B
bx A
bx @
bx ?
bx >
bx =
bx <
bx ;
bx :
bx 9
bx 8
bx 7
bx 6
bx 5
bx 4
x3
x2
x1
bx 0
bx /
x.
x-
x,
x+
x*
x)
x(
1'
1&
0%
0$
0#
x"
x!
$end
#2
0(
0*
0)
b0 8
b0 9
b0 ;
b0 <
0.
b0 7
b0 @
b0 B
b0 M
b0 6
b0 A
b0 C
b0 N
0-
03
b0 5
b0 J
b0 O
0+
0,
b0 D
b0 H
b0 F
b0 G
02
b0 4
b0 E
b0 I
b0 K
01
0!
b0 L
0"
0&
#4
1&
#5
1!
b1 K
13
b1111 5
b1111 J
b1111 O
b1 ;
b1 8
1%
#10
0%
1#
#15
b10 8
b1 9
b10 ;
b10 K
1%
#20
0%
0#
#25
b11 K
b11 ;
b11 8
b10 9
1%
#30
0%
1#
#35
b100 8
b101 9
b100 ;
b100 K
1%
#40
0%
#45
b101 K
b101 ;
b101 8
b1011 9
1%
#50
0%
#55
b110 8
b10111 9
b110 ;
b110 K
1%
#60
0%
0#
#65
b111 K
b111 ;
b111 8
b101110 9
1%
#70
0%
1#
#75
b1000 8
b1011101 9
b1000 ;
b1000 K
1%
#80
0%
#85
b1001 K
b1001 ;
b1001 8
b10111011 9
1%
#90
0%
0#
#95
b1010 8
b101110110 9
b1010 ;
b1010 K
1%
#100
0%
#105
b1011 K
b1011 ;
b1011 8
b1011101100 9
1%
#110
0%
1#
#115
b1100 8
b10111011001 9
b1100 ;
b1100 K
1%
#120
0%
0#
#125
b1101 K
b1101 ;
b1101 8
b101110110010 9
1%
#130
0%
#135
b1110 8
b1011101100100 9
b1110 ;
b1110 K
1%
#140
0%
#145
b1111 K
b1111 ;
b1111 8
b10111011001000 9
1%
#150
0%
1#
#155
b10000 8
b101110110010001 9
b10000 ;
0!
b0 K
1%
#160
0%
0'
#165
1!
b1 K
b0 ;
b0 /
b0 =
b0 ?
b0 8
b101110110010001 0
b101110110010001 :
b101110110010001 >
1%
#170
0%
#175
1*
1)
1.
b101110110010001 6
b101110110010001 A
b101110110010001 C
b101110110010001 N
b10 K
1%
#180
0%
#185
0*
0)
b11 K
1,
b1100100010 H
03
1-
b101110110010001 Q
b0 P
1%
#190
0%
#195
13
b110 5
b110 J
b110 O
b1001000100 H
b1 D
b100 K
1%
#200
0%
#205
b101 K
b10001000 H
b10 D
1%
#210
0%
#215
b1 G
b100010000 H
b11 D
b110 K
1%
#220
0%
#225
b111 K
b11 G
b1000100000 H
b100 D
1%
#230
0%
#235
b110 G
b1000000 H
b101 D
b1000 K
1%
#240
0%
#245
b1001 K
b1101 G
b10000000 H
b110 D
1%
#250
0%
#255
b11011 G
b100000000 H
b111 D
b1010 K
1%
#260
0%
#265
b1011 K
b110111 G
b1000000000 H
b1000 D
1%
#270
0%
#275
b1101110 G
b0 H
b1001 D
b1100 K
1%
#280
0%
#285
b1101 K
b11011101 G
b1010 D
1%
#290
0%
#295
1*
1(
0,
12
b11011101 4
b11011101 E
b11011101 I
b1110 K
1%
#300
0%
#305
0(
0*
0!
b0 K
11
b1100011011101 L
02
1,
b0 G
b1100100010 H
b0 D
1%
#310
0%
#315
b1001000100 H
b1 D
1!
b110001101110 L
1"
b1 K
1%
#320
0%
#325
b11000110111 L
0"
b10 K
b10001000 H
b10 D
1%
#330
0%
#335
b1 G
b100010000 H
b11 D
b1100011011 L
1"
b11 K
1%
#340
0%
#345
b110001101 L
b100 K
b11 G
b1000100000 H
b100 D
1%
#350
0%
#355
b110 G
b1000000 H
b101 D
b11000110 L
b101 K
1%
#360
0%
#365
b1100011 L
0"
b110 K
b1101 G
b10000000 H
b110 D
1%
#370
0%
#375
b11011 G
b100000000 H
b111 D
b110001 L
1"
b111 K
1%
#380
0%
#385
b11000 L
b1000 K
b110111 G
b1000000000 H
b1000 D
1%
#390
0%
#395
b1101110 G
b0 H
b1001 D
b1100 L
0"
b1001 K
1%
#400
0%
#405
b110 L
b1010 K
b11011101 G
b1010 D
1%
#410
0%
#415
1*
0,
12
b11 L
b1011 K
1%
#420
0%
#425
0*
b1 L
1"
b1100 K
02
1,
b0 G
b1100100010 H
b0 D
1%
#430
0%
#435
b1001000100 H
b1 D
b0 L
b1101 K
1%
#440
0%
#445
0"
b1110 K
b10001000 H
b10 D
1%
#450
0%
#455
b1 G
b100010000 H
b11 D
b1111 K
1%
#460
0%
#465
0!
01
b0 K
b11 G
b1000100000 H
b100 D
1%
#470
0%
#475
b110 G
b1000000 H
b101 D
1!
b1 K
1%
#480
0%
#485
b10 K
b1101 G
b10000000 H
b110 D
1%
#490
0%
#495
b11011 G
b100000000 H
b111 D
b11 K
1%
#500
0%
#505
b100 K
b110111 G
b1000000000 H
b1000 D
1%
#510
0%
#515
b1101110 G
b0 H
b1001 D
b101 K
1%
#520
0%
#525
b110 K
b11011101 G
b1010 D
1%
#530
0%
#535
1*
1(
0,
12
b111 K
1%
#540
0%
#545
0(
0*
0!
b0 K
11
b1100011011101 L
02
1,
b0 G
b1100100010 H
b0 D
1%
#550
0%
#555
b1001000100 H
b1 D
1!
b110001101110 L
1"
b1 K
1%
#560
0%
#565
b11000110111 L
0"
b10 K
b10001000 H
b10 D
1%
#570
0%
#575
b1 G
b100010000 H
b11 D
b1100011011 L
1"
b11 K
1%
#580
0%
#585
b110001101 L
b100 K
b11 G
b1000100000 H
b100 D
1%
#590
0%
#595
b110 G
b1000000 H
b101 D
b11000110 L
b101 K
1%
#600
0%
#605
b1100011 L
0"
b110 K
b1101 G
b10000000 H
b110 D
1%
#610
0%
#615
b11011 G
b100000000 H
b111 D
b110001 L
1"
b111 K
1%
#620
0%
#625
b11000 L
b1000 K
b110111 G
b1000000000 H
b1000 D
1%
#630
0%
#635
b1101110 G
b0 H
b1001 D
b1100 L
0"
b1001 K
1%
#640
0%
#645
b110 L
b1010 K
b11011101 G
b1010 D
1%
#650
0%
#655
1*
0,
12
b11 L
b1011 K
1%
#660
0%
#665
0*
b1 L
1"
b1100 K
02
1,
b0 G
b1100100010 H
b0 D
1%
#670
0%
#675
b1001000100 H
b1 D
b0 L
b1101 K
1%
#680
0%
#685
0"
b1110 K
b10001000 H
b10 D
1%
#690
0%
#695
b1 G
b100010000 H
b11 D
b1111 K
1%
#700
0%
#705
0!
01
b0 K
b11 G
b1000100000 H
b100 D
1%
#710
0%
#715
b110 G
b1000000 H
b101 D
1!
b1 K
1%
#720
0%
#725
b10 K
b1101 G
b10000000 H
b110 D
1%
#730
0%
#735
b11011 G
b100000000 H
b111 D
b11 K
1%
#740
0%
#745
b100 K
b110111 G
b1000000000 H
b1000 D
1%
#750
0%
#755
b1101110 G
b0 H
b1001 D
b101 K
1%
#760
0%
#765
b110 K
b11011101 G
b1010 D
1%
#770
0%
#775
1*
1(
0,
12
b111 K
1%
#780
0%
#785
0(
0*
0!
b0 K
11
b1100011011101 L
02
1,
b0 G
b1100100010 H
b0 D
1%
#790
0%
#795
b1001000100 H
b1 D
1!
b110001101110 L
1"
b1 K
1%
#800
0%
#805
b11000110111 L
0"
b10 K
b10001000 H
b10 D
1%
#810
0%
#815
b1 G
b100010000 H
b11 D
b1100011011 L
1"
b11 K
1%
#820
0%
#825
b110001101 L
b100 K
b11 G
b1000100000 H
b100 D
1%
#830
0%
#835
b110 G
b1000000 H
b101 D
b11000110 L
b101 K
1%
#840
0%
#845
b1100011 L
0"
b110 K
b1101 G
b10000000 H
b110 D
1%
#850
0%
#855
b11011 G
b100000000 H
b111 D
b110001 L
1"
b111 K
1%
#860
0%
#865
b11000 L
b1000 K
b110111 G
b1000000000 H
b1000 D
1%
#870
0%
#875
b1101110 G
b0 H
b1001 D
b1100 L
0"
b1001 K
1%
#880
0%
#885
b110 L
b1010 K
b11011101 G
b1010 D
1%
#890
0%
#895
1*
0,
12
b11 L
b1011 K
1%
#900
0%
#905
0*
b1 L
1"
b1100 K
02
1,
b0 G
b1100100010 H
b0 D
1%
#910
0%
#915
b1001000100 H
b1 D
b0 L
b1101 K
1%
#920
0%
#925
0"
b1110 K
b10001000 H
b10 D
1%
#930
0%
#935
b1 G
b100010000 H
b11 D
b1111 K
1%
#940
0%
#945
0!
01
b0 K
b11 G
b1000100000 H
b100 D
1%
#950
0%
#955
b110 G
b1000000 H
b101 D
1!
b1 K
1%
#960
0%
#965
b10 K
b1101 G
b10000000 H
b110 D
1%
#970
0%
#975
b11011 G
b100000000 H
b111 D
b11 K
1%
#980
0%
#985
b100 K
b110111 G
b1000000000 H
b1000 D
1%
#990
0%
#995
b1101110 G
b0 H
b1001 D
b101 K
1%
#1000
0%
#1005
b110 K
b11011101 G
b1010 D
1%
#1010
0%
#1015
1*
1(
0,
12
b111 K
1%
#1020
0%
#1025
0(
0*
0!
b0 K
11
b1100011011101 L
02
1,
b0 G
b1100100010 H
b0 D
1%
#1030
0%
#1035
b1001000100 H
b1 D
1!
b110001101110 L
1"
b1 K
1%
#1040
0%
#1045
b11000110111 L
0"
b10 K
b10001000 H
b10 D
1%
#1050
0%
#1055
b1 G
b100010000 H
b11 D
b1100011011 L
1"
b11 K
1%
#1060
0%
#1065
b110001101 L
b100 K
b11 G
b1000100000 H
b100 D
1%
#1070
0%
#1075
b110 G
b1000000 H
b101 D
b11000110 L
b101 K
1%
#1080
0%
#1085
b1100011 L
0"
b110 K
b1101 G
b10000000 H
b110 D
1%
#1090
0%
#1095
b11011 G
b100000000 H
b111 D
b110001 L
1"
b111 K
1%
#1100
0%
#1105
b11000 L
b1000 K
b110111 G
b1000000000 H
b1000 D
1%
#1110
0%
#1115
b1101110 G
b0 H
b1001 D
b1100 L
0"
b1001 K
1%
#1120
0%
#1125
b110 L
b1010 K
b11011101 G
b1010 D
1%
#1130
0%
#1135
1*
0,
12
b11 L
b1011 K
1%
#1140
0%
#1145
0*
b1 L
1"
b1100 K
02
1,
b0 G
b1100100010 H
b0 D
1%
#1150
0%
#1155
b1001000100 H
b1 D
b0 L
b1101 K
1%
#1160
0%
#1165
0"
b1110 K
b10001000 H
b10 D
1%
#1170
0%
#1175
b1 G
b100010000 H
b11 D
b1111 K
1%
#1180
0%
#1185
0!
01
b0 K
b11 G
b1000100000 H
b100 D
1%
#1190
0%
#1195
b110 G
b1000000 H
b101 D
1!
b1 K
1%
#1200
0%
#1205
b10 K
b1101 G
b10000000 H
b110 D
1%
#1210
0%
#1215
b11011 G
b100000000 H
b111 D
b11 K
1%
#1220
0%
#1225
b100 K
b110111 G
b1000000000 H
b1000 D
1%
#1230
0%
#1235
b1101110 G
b0 H
b1001 D
b101 K
1%
#1240
0%
#1245
b110 K
b11011101 G
b1010 D
1%
#1250
0%
#1255
1*
1(
0,
12
b111 K
1%
#1260
0%
#1265
0(
0*
0!
b0 K
11
b1100011011101 L
02
1,
b0 G
b1100100010 H
b0 D
1%
#1270
0%
#1275
b1001000100 H
b1 D
1!
b110001101110 L
1"
b1 K
1%
#1280
0%
#1285
b11000110111 L
0"
b10 K
b10001000 H
b10 D
1%
#1290
0%
#1295
b1 G
b100010000 H
b11 D
b1100011011 L
1"
b11 K
1%
#1300
0%
#1305
b110001101 L
b100 K
b11 G
b1000100000 H
b100 D
1%
#1310
0%
#1315
b110 G
b1000000 H
b101 D
b11000110 L
b101 K
1%
#1320
0%
#1325
b1100011 L
0"
b110 K
b1101 G
b10000000 H
b110 D
1%
#1330
0%
#1335
b11011 G
b100000000 H
b111 D
b110001 L
1"
b111 K
1%
#1340
0%
#1345
b11000 L
b1000 K
b110111 G
b1000000000 H
b1000 D
1%
#1350
0%
#1355
b1101110 G
b0 H
b1001 D
b1100 L
0"
b1001 K
1%
#1360
0%
#1365
b110 L
b1010 K
b11011101 G
b1010 D
1%
#1370
0%
#1375
1*
0,
12
b11 L
b1011 K
1%
#1380
0%
#1385
0*
b1 L
1"
b1100 K
02
1,
b0 G
b1100100010 H
b0 D
1%
#1390
0%
#1395
b1001000100 H
b1 D
b0 L
b1101 K
1%
#1400
0%
#1405
0"
b1110 K
b10001000 H
b10 D
1%
#1410
0%
#1415
b1 G
b100010000 H
b11 D
b1111 K
1%
#1420
0%
#1425
0!
01
b0 K
b11 G
b1000100000 H
b100 D
1%
#1430
0%
#1435
b110 G
b1000000 H
b101 D
1!
b1 K
1%
#1440
0%
#1445
b10 K
b1101 G
b10000000 H
b110 D
1%
#1450
0%
#1455
b11011 G
b100000000 H
b111 D
b11 K
1%
#1460
0%
#1465
b100 K
b110111 G
b1000000000 H
b1000 D
1%
#1470
0%
#1475
b1101110 G
b0 H
b1001 D
b101 K
1%
#1480
0%
#1485
b110 K
b11011101 G
b1010 D
1%
#1490
0%
#1495
1*
1(
0,
12
b111 K
1%
#1500
0%
#1505
0(
0*
0!
b0 K
11
b1100011011101 L
02
1,
b0 G
b1100100010 H
b0 D
1%
#1510
0%
#1515
b1001000100 H
b1 D
1!
b110001101110 L
1"
b1 K
1%
#1520
0%
#1525
b11000110111 L
0"
b10 K
b10001000 H
b10 D
1%
#1530
0%
#1535
b1 G
b100010000 H
b11 D
b1100011011 L
1"
b11 K
1%
#1540
0%
#1545
b110001101 L
b100 K
b11 G
b1000100000 H
b100 D
1%
#1550
0%
#1555
b110 G
b1000000 H
b101 D
b11000110 L
b101 K
1%
#1560
0%
#1565
b1100011 L
0"
b110 K
b1101 G
b10000000 H
b110 D
1%
#1570
0%
#1575
b11011 G
b100000000 H
b111 D
b110001 L
1"
b111 K
1%
#1580
0%
#1585
b11000 L
b1000 K
b110111 G
b1000000000 H
b1000 D
1%
#1590
0%
#1595
b1101110 G
b0 H
b1001 D
b1100 L
0"
b1001 K
1%
#1600
0%
#1605
b110 L
b1010 K
b11011101 G
b1010 D
1%
#1610
0%
#1615
1*
0,
12
b11 L
b1011 K
1%
#1620
0%
#1625
0*
b1 L
1"
b1100 K
02
1,
b0 G
b1100100010 H
b0 D
1%
#1630
0%
#1635
b1001000100 H
b1 D
b0 L
b1101 K
1%
#1640
0%
#1645
0"
b1110 K
b10001000 H
b10 D
1%
#1650
0%
#1655
b1 G
b100010000 H
b11 D
b1111 K
1%
#1660
0%
#1665
0!
01
b0 K
b11 G
b1000100000 H
b100 D
1%
#1670
0%
#1675
b110 G
b1000000 H
b101 D
1!
b1 K
1%
#1680
0%
#1685
b10 K
b1101 G
b10000000 H
b110 D
1%
#1690
0%
#1695
b11011 G
b100000000 H
b111 D
b11 K
1%
#1700
0%
#1705
b100 K
b110111 G
b1000000000 H
b1000 D
1%
#1710
0%
#1715
b1101110 G
b0 H
b1001 D
b101 K
1%
#1720
0%
#1725
b110 K
b11011101 G
b1010 D
1%
#1730
0%
#1735
1*
1(
0,
12
b111 K
1%
#1740
0%
#1745
0(
0*
0!
b0 K
11
b1100011011101 L
02
1,
b0 G
b1100100010 H
b0 D
1%
#1750
0%
#1755
b1001000100 H
b1 D
1!
b110001101110 L
1"
b1 K
1%
#1760
0%
#1765
b11000110111 L
0"
b10 K
b10001000 H
b10 D
1%
#1770
0%
#1775
b1 G
b100010000 H
b11 D
b1100011011 L
1"
b11 K
1%
#1780
0%
#1785
b110001101 L
b100 K
b11 G
b1000100000 H
b100 D
1%
#1790
0%
#1795
b110 G
b1000000 H
b101 D
b11000110 L
b101 K
1%
#1800
0%
#1805
b1100011 L
0"
b110 K
b1101 G
b10000000 H
b110 D
1%
#1810
0%
#1815
b11011 G
b100000000 H
b111 D
b110001 L
1"
b111 K
1%
#1820
0%
#1825
b11000 L
b1000 K
b110111 G
b1000000000 H
b1000 D
1%
#1830
0%
#1835
b1101110 G
b0 H
b1001 D
b1100 L
0"
b1001 K
1%
#1840
0%
#1845
b110 L
b1010 K
b11011101 G
b1010 D
1%
#1850
0%
#1855
1*
0,
12
b11 L
b1011 K
1%
#1860
0%
#1865
0*
b1 L
1"
b1100 K
02
1,
b0 G
b1100100010 H
b0 D
1%
#1870
0%
#1875
b1001000100 H
b1 D
b0 L
b1101 K
1%
#1880
0%
#1885
0"
b1110 K
b10001000 H
b10 D
1%
#1890
0%
#1895
b1 G
b100010000 H
b11 D
b1111 K
1%
#1900
0%
#1905
0!
01
b0 K
b11 G
b1000100000 H
b100 D
1%
#1910
0%
#1915
b110 G
b1000000 H
b101 D
1!
b1 K
1%
#1920
0%
#1925
b10 K
b1101 G
b10000000 H
b110 D
1%
#1930
0%
#1935
b11011 G
b100000000 H
b111 D
b11 K
1%
#1940
0%
#1945
b100 K
b110111 G
b1000000000 H
b1000 D
1%
#1950
0%
#1955
b1101110 G
b0 H
b1001 D
b101 K
1%
#1960
0%
#1965
b110 K
b11011101 G
b1010 D
1%
#1970
0%
#1975
1*
1(
0,
12
b111 K
1%
#1980
0%
#1985
0(
0*
0!
b0 K
11
b1100011011101 L
02
1,
b0 G
b1100100010 H
b0 D
1%
#1990
0%
#1995
b1001000100 H
b1 D
1!
b110001101110 L
1"
b1 K
1%
#2000
0%
#2005
b11000110111 L
0"
b10 K
b10001000 H
b10 D
1%
#2010
0%
#2015
b1 G
b100010000 H
b11 D
b1100011011 L
1"
b11 K
1%
#2020
0%
#2025
b110001101 L
b100 K
b11 G
b1000100000 H
b100 D
1%
#2030
0%
#2035
b110 G
b1000000 H
b101 D
b11000110 L
b101 K
1%
#2040
0%
#2045
b1100011 L
0"
b110 K
b1101 G
b10000000 H
b110 D
1%
#2050
0%
#2055
b11011 G
b100000000 H
b111 D
b110001 L
1"
b111 K
1%
#2060
0%
#2065
b11000 L
b1000 K
b110111 G
b1000000000 H
b1000 D
1%
#2070
0%
#2075
b1101110 G
b0 H
b1001 D
b1100 L
0"
b1001 K
1%
#2080
0%
#2085
b110 L
b1010 K
b11011101 G
b1010 D
1%
#2090
0%
#2095
1*
0,
12
b11 L
b1011 K
1%
#2100
0%
#2105
0*
b1 L
1"
b1100 K
02
1,
b0 G
b1100100010 H
b0 D
1%
#2110
0%
#2115
b1001000100 H
b1 D
b0 L
b1101 K
1%
#2120
0%
#2125
0"
b1110 K
b10001000 H
b10 D
1%
#2130
0%
#2135
b1 G
b100010000 H
b11 D
b1111 K
1%
#2140
0%
#2145
0!
01
b0 K
b11 G
b1000100000 H
b100 D
1%
#2150
0%
#2155
b110 G
b1000000 H
b101 D
1!
b1 K
1%
#2160
0%
#2165
b10 K
b1101 G
b10000000 H
b110 D
1%
#2170
0%
#2175
b11011 G
b100000000 H
b111 D
b11 K
1%
#2180
0%
#2185
b100 K
b110111 G
b1000000000 H
b1000 D
1%
#2190
0%
#2195
b1101110 G
b0 H
b1001 D
b101 K
1%
#2200
0%
#2205
b110 K
b11011101 G
b1010 D
1%
#2210
0%
#2215
1*
1(
0,
12
b111 K
1%
#2220
0%
#2225
0(
0*
0!
b0 K
11
b1100011011101 L
02
1,
b0 G
b1100100010 H
b0 D
1%
#2230
0%
#2235
b1001000100 H
b1 D
1!
b110001101110 L
1"
b1 K
1%
#2240
0%
#2245
b11000110111 L
0"
b10 K
b10001000 H
b10 D
1%
#2250
0%
#2255
b1 G
b100010000 H
b11 D
b1100011011 L
1"
b11 K
1%
#2260
0%
#2265
b110001101 L
b100 K
b11 G
b1000100000 H
b100 D
1%
#2270
0%
#2275
b110 G
b1000000 H
b101 D
b11000110 L
b101 K
1%
#2280
0%
#2285
b1100011 L
0"
b110 K
b1101 G
b10000000 H
b110 D
1%
#2290
0%
#2295
b11011 G
b100000000 H
b111 D
b110001 L
1"
b111 K
1%
#2300
0%
#2305
b11000 L
b1000 K
b110111 G
b1000000000 H
b1000 D
1%
#2310
0%
#2315
b1101110 G
b0 H
b1001 D
b1100 L
0"
b1001 K
1%
#2320
0%
#2325
b110 L
b1010 K
b11011101 G
b1010 D
1%
#2330
0%
#2335
1*
0,
12
b11 L
b1011 K
1%
#2340
0%
#2345
0*
b1 L
1"
b1100 K
02
1,
b0 G
b1100100010 H
b0 D
1%
#2350
0%
#2355
b1001000100 H
b1 D
b0 L
b1101 K
1%
#2360
0%
#2365
0"
b1110 K
b10001000 H
b10 D
1%
#2370
0%
#2375
b1 G
b100010000 H
b11 D
b1111 K
1%
#2380
0%
#2385
0!
01
b0 K
b11 G
b1000100000 H
b100 D
1%
#2390
0%
#2395
b110 G
b1000000 H
b101 D
1!
b1 K
1%
#2400
0%
#2405
b10 K
b1101 G
b10000000 H
b110 D
1%
#2410
0%
#2415
b11011 G
b100000000 H
b111 D
b11 K
1%
#2420
0%
#2425
b100 K
b110111 G
b1000000000 H
b1000 D
1%
#2430
0%
#2435
b1101110 G
b0 H
b1001 D
b101 K
1%
#2440
0%
#2445
b110 K
b11011101 G
b1010 D
1%
#2450
0%
#2455
1*
1(
0,
12
b111 K
1%
#2460
0%
#2465
0(
0*
0!
b0 K
11
b1100011011101 L
02
1,
b0 G
b1100100010 H
b0 D
1%
#2470
0%
#2475
b1001000100 H
b1 D
1!
b110001101110 L
1"
b1 K
1%
#2480
0%
#2485
b11000110111 L
0"
b10 K
b10001000 H
b10 D
1%
#2490
0%
#2495
b1 G
b100010000 H
b11 D
b1100011011 L
1"
b11 K
1%
#2500
0%
#2505
b110001101 L
b100 K
b11 G
b1000100000 H
b100 D
1%
#2510
0%
#2515
b110 G
b1000000 H
b101 D
b11000110 L
b101 K
1%
#2520
0%
#2525
b1100011 L
0"
b110 K
b1101 G
b10000000 H
b110 D
1%
#2530
0%
#2535
b11011 G
b100000000 H
b111 D
b110001 L
1"
b111 K
1%
#2540
0%
#2545
b11000 L
b1000 K
b110111 G
b1000000000 H
b1000 D
1%
#2550
0%
#2555
b1101110 G
b0 H
b1001 D
b1100 L
0"
b1001 K
1%
#2560
0%
#2565
b110 L
b1010 K
b11011101 G
b1010 D
1%
#2570
0%
#2575
1*
0,
12
b11 L
b1011 K
1%
#2580
0%
#2585
0*
b1 L
1"
b1100 K
02
1,
b0 G
b1100100010 H
b0 D
1%
#2590
0%
#2595
b1001000100 H
b1 D
b0 L
b1101 K
1%
#2600
0%
#2605
0"
b1110 K
b10001000 H
b10 D
1%
#2610
0%
#2615
b1 G
b100010000 H
b11 D
b1111 K
1%
#2620
0%
#2625
0!
01
b0 K
b11 G
b1000100000 H
b100 D
1%
#2630
0%
#2635
b110 G
b1000000 H
b101 D
1!
b1 K
1%
#2640
0%
#2645
b10 K
b1101 G
b10000000 H
b110 D
1%
#2650
0%
#2655
b11011 G
b100000000 H
b111 D
b11 K
1%
#2660
0%
#2665
b100 K
b110111 G
b1000000000 H
b1000 D
1%
#2670
0%
#2675
b1101110 G
b0 H
b1001 D
b101 K
1%
#2680
0%
#2685
b110 K
b11011101 G
b1010 D
1%
#2690
0%
#2695
1*
1(
0,
12
b111 K
1%
#2700
0%
#2705
0(
0*
0!
b0 K
11
b1100011011101 L
02
1,
b0 G
b1100100010 H
b0 D
1%
#2710
0%
#2715
b1001000100 H
b1 D
1!
b110001101110 L
1"
b1 K
1%
#2720
0%
#2725
b11000110111 L
0"
b10 K
b10001000 H
b10 D
1%
#2730
0%
#2735
b1 G
b100010000 H
b11 D
b1100011011 L
1"
b11 K
1%
#2740
0%
#2745
b110001101 L
b100 K
b11 G
b1000100000 H
b100 D
1%
#2750
0%
#2755
b110 G
b1000000 H
b101 D
b11000110 L
b101 K
1%
#2760
0%
#2765
b1100011 L
0"
b110 K
b1101 G
b10000000 H
b110 D
1%
#2770
0%
#2775
b11011 G
b100000000 H
b111 D
b110001 L
1"
b111 K
1%
#2780
0%
#2785
b11000 L
b1000 K
b110111 G
b1000000000 H
b1000 D
1%
#2790
0%
#2795
b1101110 G
b0 H
b1001 D
b1100 L
0"
b1001 K
1%
#2800
0%
#2805
b110 L
b1010 K
b11011101 G
b1010 D
1%
#2810
0%
#2815
1*
0,
12
b11 L
b1011 K
1%
#2820
0%
#2825
0*
b1 L
1"
b1100 K
02
1,
b0 G
b1100100010 H
b0 D
1%
#2830
0%
#2835
b1001000100 H
b1 D
b0 L
b1101 K
1%
#2840
0%
#2845
0"
b1110 K
b10001000 H
b10 D
1%
#2850
0%
#2855
b1 G
b100010000 H
b11 D
b1111 K
1%
#2860
0%
#2865
0!
01
b0 K
b11 G
b1000100000 H
b100 D
1%
#2870
0%
#2875
b110 G
b1000000 H
b101 D
1!
b1 K
1%
#2880
0%
#2885
b10 K
b1101 G
b10000000 H
b110 D
1%
#2890
0%
#2895
b11011 G
b100000000 H
b111 D
b11 K
1%
#2900
0%
#2905
b100 K
b110111 G
b1000000000 H
b1000 D
1%
#2910
0%
#2915
b1101110 G
b0 H
b1001 D
b101 K
1%
#2920
0%
#2925
b110 K
b11011101 G
b1010 D
1%
#2930
0%
#2935
1*
1(
0,
12
b111 K
1%
#2940
0%
#2945
0(
0*
0!
b0 K
11
b1100011011101 L
02
1,
b0 G
b1100100010 H
b0 D
1%
#2950
0%
#2955
b1001000100 H
b1 D
1!
b110001101110 L
1"
b1 K
1%
#2960
0%
#2965
b11000110111 L
0"
b10 K
b10001000 H
b10 D
1%
#2970
0%
#2975
b1 G
b100010000 H
b11 D
b1100011011 L
1"
b11 K
1%
#2980
0%
#2985
b110001101 L
b100 K
b11 G
b1000100000 H
b100 D
1%
#2990
0%
#2995
b110 G
b1000000 H
b101 D
b11000110 L
b101 K
1%
