MPEI_Magistracy/Term_two/ASIC_design/LFSR/LFSR_Fibonacci/qqq.vcd
$date
	Thu Mar 07 10:20:09 2024
$end
$version
	Icarus Verilog
$end
$timescale
	1s
$end
$scope module tb $end
$var wire 16 ! data [15:0] $end
$var reg 16 " calc_seq [15:0] $end
$var reg 1 # clk $end
$var reg 1 $ en $end
$var reg 4 % len [3:0] $end
$var reg 1 & load $end
$var reg 1 ' new_bit $end
$var reg 17 ( poly [16:0] $end
$var reg 16 ) seed [15:0] $end
$var reg 4 * shift [3:0] $end
$scope module UUT $end
$var wire 1 # CLK_I $end
$var wire 16 + DATA_O [15:0] $end
$var wire 1 $ EN_I $end
$var wire 4 , LEN_I [3:0] $end
$var wire 1 & LOAD_I $end
$var wire 17 - POLY_I [16:0] $end
$var wire 16 . SEED_I [15:0] $end
$var wire 4 / SHIFT_I [3:0] $end
$var parameter 32 0 MAX_LEN $end
$var reg 4 1 len_reg [3:0] $end
$var reg 16 2 lfsr_reg [15:0] $end
$var reg 17 3 nodes [16:0] $end
$var reg 16 4 poly_reg [15:0] $end
$var reg 4 5 shift_reg [3:0] $end
$scope function feedback_calc $end
$var reg 4 6 len [3:0] $end
$var reg 16 7 polynome [15:0] $end
$var reg 16 8 reg_value [15:0] $end
$var reg 1 9 value $end
$scope begin $ivl_for_loop0 $end
$var integer 32 : i [31:0] $end
$upscope $end
$upscope $end
$scope begin $ivl_for_loop1 $end
$var integer 32 ; i [31:0] $end
$upscope $end
$upscope $end
$scope begin $ivl_for_loop2 $end
$var integer 32 < j [31:0] $end
$scope begin $ivl_for_loop3 $end
$var integer 32 = i [31:0] $end
$upscope $end
$upscope $end
$scope begin $ivl_for_loop4 $end
$var integer 32 > j [31:0] $end
$scope begin $ivl_for_loop5 $end
$var integer 32 ? i [31:0] $end
$upscope $end
$upscope $end
$upscope $end
$enddefinitions $end
$comment Show the parameter values. $end
$dumpall
b10000 0
$end
#0
$dumpvars
b0 ?
b0 >
b0 =
b0 <
b0 ;
b0 :
x9
bx 8
bx 7
bx 6
bx 5
bx 4
b0xxxxxxxxxxxxxxxx 3
bx 2
bx 1
b0 /
b1 .
b111000000000101 -
b1101 ,
bx +
b0 *
b1 )
b111000000000101 (
x'
0&
b1101 %
0$
0#
bx "
bx !
$end
#5
1#
#10
0#
#15
1#
#20
0#
#25
1#
#30
0#
#35
1#
#40
0#
#45
1#
#50
0#
#55
1#
#60
0#
#65
1#
#70
0#
#75
1#
#80
0#
#85
1#
#90
0#
#95
1#
#100
0#
#105
b1 3
1&
1#
#110
0#
#115
0&
b1 !
b1 +
b1 2
b1101 1
b11100000000010 4
b0 5
b1 "
1#
#120
0#
#125
b1 ;
b1101 :
09
b11100000000010 7
b1 8
b1101 6
b10 3
1$
1&
1#
#130
0#
#135
19
b1101 :
b10 8
b101 3
b1 ;
0&
b10 !
b10 +
b10 2
1#
#140
0#
#145
b1101 :
09
b101 8
b1010 3
b1 ;
b101 !
b101 +
b101 2
b1 >
b10 "
b1110 ?
0'
b1 =
1#
#150
0#
#155
19
b1101 :
b1010 8
b10101 3
b1 ;
b1010 !
b1010 +
b1010 2
b101 "
1'
b1110 ?
b1 >
b10 =
1#
#160
0#
#165
b1101 :
09
b10101 8
b101010 3
b1 ;
b10101 !
b10101 +
b10101 2
b1010 "
b1110 ?
0'
b1 >
b11 =
1#
#170
0#
#175
19
b1101 :
b101010 8
b1010101 3
b1 ;
b101010 !
b101010 +
b101010 2
b10101 "
1'
b1110 ?
b1 >
b100 =
1#
#180
0#
#185
b1101 :
09
b1010101 8
b10101010 3
b1 ;
b1010101 !
b1010101 +
b1010101 2
b101010 "
b1110 ?
0'
b1 >
b101 =
1#
#190
0#
#195
19
b1101 :
b10101010 8
b101010101 3
b1 ;
b10101010 !
b10101010 +
b10101010 2
b1010101 "
1'
b1110 ?
b1 >
b110 =
1#
#200
0#
#205
b1101 :
09
b101010101 8
b1010101010 3
b1 ;
b101010101 !
b101010101 +
b101010101 2
b10101010 "
b1110 ?
0'
b1 >
b111 =
1#
#210
0#
#215
19
b1101 :
b1010101010 8
b10101010101 3
b1 ;
b1010101010 !
b1010101010 +
b1010101010 2
b101010101 "
1'
b1110 ?
b1 >
b1000 =
1#
#220
0#
#225
b1101 :
09
b10101010101 8
b101010101010 3
b1 ;
b10101010101 !
b10101010101 +
b10101010101 2
b1010101010 "
b1110 ?
0'
b1 >
b1001 =
1#
#230
0#
#235
09
b1101 :
b101010101010 8
b1010101010100 3
b1 ;
b101010101010 !
b101010101010 +
b101010101010 2
b10101010101 "
1'
b1110 ?
b1 >
b1010 =
1#
#240
0#
#245
19
b1101 :
b1010101010100 8
b10101010101001 3
b1 ;
b1010101010100 !
b1010101010100 +
b1010101010100 2
b101010101010 "
b1110 ?
0'
b1 >
b1011 =
1#
#250
0#
#255
09
b1101 :
b10101010101001 8
b101010101010010 3
b1 ;
b10101010101001 !
b10101010101001 +
b10101010101001 2
b1010101010100 "
0'
b1110 ?
b1 >
b1100 =
1#
#260
0#
#265
09
b1101 :
b101010101010010 8
b1010101010100100 3
b1 ;
b101010101010010 !
b101010101010010 +
b101010101010010 2
b10101010101001 "
1'
b1110 ?
b1 >
b1101 =
1#
#270
0#
#275
b1101 :
09
b1010101010100100 8
b10101010101001000 3
b1 ;
b1010101010100100 !
b1010101010100100 +
b1010101010100100 2
b101010101010010 "
0'
b1110 ?
b1 >
b1110 =
1#
#280
0#
#285
19
b1101 :
b101010101001000 8
b1 ;
b1010101010010001 3
b101010101001000 !
b101010101001000 +
b101010101001000 2
b1010101010100100 "
0'
b1110 ?
b1 >
b1111 =
1#
#290
0#
#295
09
b1101 :
b1010101010010001 8
b10101010100100010 3
b1 ;
b1010101010010001 !
b1010101010010001 +
b1010101010010001 2
b101010101001000 "
b1110 ?
0'
b1 >
b10000 =
1#
#300
0#
#305
09
b1101 :
b101010100100010 8
b1 ;
b1010101001000100 3
b101010100100010 !
b101010100100010 +
b101010100100010 2
b1010101010010001 "
1'
b1110 ?
b1 >
b10001 =
1#
#310
0#
#315
b1101 :
09
b1010101001000100 8
b10101010010001000 3
b1 ;
b1010101001000100 !
b1010101001000100 +
b1010101001000100 2
b101010100100010 "
0'
b1110 ?
b1 >
b10010 =
1#
#320
0#
#325
19
b1101 :
b101010010001000 8
b1 ;
b1010100100010001 3
b101010010001000 !
b101010010001000 +
b101010010001000 2
b1010101001000100 "
0'
b1110 ?
b1 >
b10011 =
1#
#330
0#
#335
09
b1101 :
b1010100100010001 8
b10101001000100010 3
b1 ;
b1010100100010001 !
b1010100100010001 +
b1010100100010001 2
b101010010001000 "
b1110 ?
0'
b1 >
b10100 =
1#
#340
0#
#345
09
b1101 :
b101001000100010 8
b1 ;
b1010010001000100 3
b101001000100010 !
b101001000100010 +
b101001000100010 2
b1010100100010001 "
1'
b1110 ?
b1 >
b10101 =
1#
#350
0#
#355
b1101 :
19
b1010010001000100 8
b10100100010001001 3
b1 ;
b1010010001000100 !
b1010010001000100 +
b1010010001000100 2
b101001000100010 "
0'
b1110 ?
b1 >
b10110 =
1#
#360
0#
#365
b1101 :
19
b100100010001001 8
b1 ;
b1001000100010011 3
b100100010001001 !
b100100010001001 +
b100100010001001 2
b1010010001000100 "
0'
b1110 ?
b1 >
b10111 =
1#
#370
0#
#375
b1101 :
09
b1001000100010011 8
b10010001000100110 3
b1 ;
b1001000100010011 !
b1001000100010011 +
b1001000100010011 2
b100100010001001 "
b1110 ?
1'
b1 >
b11000 =
1#
#380
0#
#385
b1101 :
09
b10001000100110 8
b1 ;
b100010001001100 3
b10001000100110 !
b10001000100110 +
b10001000100110 2
b1001000100010011 "
b1110 ?
1'
b1 >
b11001 =
1#
#390
0#
#395
b1101 :
b100010001001100 8
b1000100010011000 3
b1 ;
b100010001001100 !
b100010001001100 +
b100010001001100 2
b10001000100110 "
b1110 ?
0'
b1 >
b11010 =
1#
#400
0#
#405
19
b1101 :
b1000100010011000 8
b10001000100110001 3
b1 ;
b1000100010011000 !
b1000100010011000 +
b1000100010011000 2
b100010001001100 "
b1110 ?
0'
b1 >
b11011 =
1#
#410
0#
#415
b1101 :
19
b1000100110001 8
b1 ;
b10001001100011 3
b1000100110001 !
b1000100110001 +
b1000100110001 2
b1000100010011000 "
b1110 ?
b1 >
b11100 =
1#
#420
0#
#425
09
b1101 :
b10001001100011 8
b100010011000110 3
b1 ;
b10001001100011 !
b10001001100011 +
b10001001100011 2
b1000100110001 "
1'
b1110 ?
b1 >
b11101 =
1#
#430
0#
#435
19
b1101 :
b100010011000110 8
b1000100110001101 3
b1 ;
b100010011000110 !
b100010011000110 +
b100010011000110 2
b10001001100011 "
b1110 ?
1'
b1 >
b11110 =
1#
#440
0#
#445
b1101 :
19
b1000100110001101 8
b10001001100011011 3
b1 ;
b1000100110001101 !
b1000100110001101 +
b1000100110001101 2
b100010011000110 "
0'
b1110 ?
b1 >
b11111 =
1#
#450
0#
#455
b1101 :
09
b1001100011011 8
b1 ;
b10011000110110 3
b1001100011011 !
b1001100011011 +
b1001100011011 2
b1000100110001101 "
1'
b1110 ?
b1 >
b100000 =
1#
#460
0#
#465
b1101 :
09
b10011000110110 8
b100110001101100 3
b1 ;
b10011000110110 !
b10011000110110 +
b10011000110110 2
b1001100011011 "
b1110 ?
1'
b1 >
b100001 =
1#
#470
0#
#475
19
b1101 :
b100110001101100 8
b1001100011011001 3
b1 ;
b100110001101100 !
b100110001101100 +
b100110001101100 2
b10011000110110 "
b1110 ?
0'
b1 >
b100010 =
1#
#480
0#
#485
b1101 :
09
b1001100011011001 8
b10011000110110010 3
b1 ;
b1001100011011001 !
b1001100011011001 +
b1001100011011001 2
b100110001101100 "
b1110 ?
0'
b1 >
b100011 =
1#
#490
0#
#495
b1101 :
19
b11000110110010 8
b1 ;
b110001101100101 3
b11000110110010 !
b11000110110010 +
b11000110110010 2
b1001100011011001 "
1'
b1110 ?
b1 >
b100100 =
1#
#500
0#
#505
b1101 :
b110001101100101 8
b1100011011001011 3
b1 ;
b110001101100101 !
b110001101100101 +
b110001101100101 2
b11000110110010 "
b1110 ?
0'
b1 >
b100101 =
1#
#510
0#
#515
b1101 :
19
b1100011011001011 8
b11000110110010111 3
b1 ;
b1100011011001011 !
b1100011011001011 +
b1100011011001011 2
b110001101100101 "
b1110 ?
1'
b1 >
b100110 =
1#
#520
0#
#525
b1101 :
09
b1000110110010111 8
b1 ;
b10001101100101110 3
b1000110110010111 !
b1000110110010111 +
b1000110110010111 2
b1100011011001011 "
b1110 ?
b1 >
b100111 =
1#
#530
0#
#535
19
b1101 :
b1101100101110 8
b1 ;
b11011001011101 3
b1101100101110 !
b1101100101110 +
b1101100101110 2
b1000110110010111 "
b1110 ?
1'
b1 >
b101000 =
1#
#540
0#
#545
09
b1101 :
b11011001011101 8
b110110010111010 3
b1 ;
b11011001011101 !
b11011001011101 +
b11011001011101 2
b1101100101110 "
b1110 ?
0'
b1 >
b101001 =
1#
#550
0#
#555
b1101 :
19
b110110010111010 8
b1101100101110101 3
b1 ;
b110110010111010 !
b110110010111010 +
b110110010111010 2
b11011001011101 "
1'
b1110 ?
b1 >
b101010 =
1#
#560
0#
#565
b1101 :
09
b1101100101110101 8
b11011001011101010 3
b1 ;
b1101100101110101 !
b1101100101110101 +
b1101100101110101 2
b110110010111010 "
0'
b1110 ?
b1 >
b101011 =
1#
#570
0#
#575
b1101 :
19
b1011001011101010 8
b1 ;
b10110010111010101 3
b1011001011101010 !
b1011001011101010 +
b1011001011101010 2
b1101100101110101 "
b1110 ?
1'
b1 >
b101100 =
1#
#580
0#
#585
b1101 :
b110010111010101 8
b1 ;
b1100101110101011 3
b110010111010101 !
b110010111010101 +
b110010111010101 2
b1011001011101010 "
b1110 ?
0'
b1 >
b101101 =
1#
#590
0#
#595
b1101 :
09
b1100101110101011 8
b11001011101010110 3
b1 ;
b1100101110101011 !
b1100101110101011 +
b1100101110101011 2
b110010111010101 "
b1110 ?
1'
b1 >
b101110 =
1#
#600
0#
#605
09
b1101 :
b1001011101010110 8
b1 ;
b10010111010101100 3
b1001011101010110 !
b1001011101010110 +
b1001011101010110 2
b1100101110101011 "
b1110 ?
b1 >
b101111 =
1#
#610
0#
#615
b1101 :
09
b10111010101100 8
b1 ;
b101110101011000 3
b10111010101100 !
b10111010101100 +
b10111010101100 2
b1001011101010110 "
b1110 ?
0'
b1 >
b110000 =
1#
#620
0#
#625
09
b1101 :
b101110101011000 8
b1011101010110000 3
b1 ;
b101110101011000 !
b101110101011000 +
b101110101011000 2
b10111010101100 "
0'
b1110 ?
b1 >
b110001 =
1#
#630
0#
#635
b1101 :
19
b1011101010110000 8
b10111010101100001 3
b1 ;
b1011101010110000 !
b1011101010110000 +
b1011101010110000 2
b101110101011000 "
b1110 ?
0'
b1 >
b110010 =
1#
#640
0#
#645
09
b1101 :
b111010101100001 8
b1 ;
b1110101011000010 3
b111010101100001 !
b111010101100001 +
b111010101100001 2
b1011101010110000 "
0'
b1110 ?
b1 >
b110011 =
1#
#650
0#
#655
b1101 :
19
b1110101011000010 8
b11101010110000101 3
b1 ;
b1110101011000010 !
b1110101011000010 +
b1110101011000010 2
b111010101100001 "
b1110 ?
1'
b1 >
b110100 =
1#
#660
0#
#665
b1101 :
19
b1101010110000101 8
b1 ;
b11010101100001011 3
b1101010110000101 !
b1101010110000101 +
b1101010110000101 2
b1110101011000010 "
0'
b1110 ?
b1 >
b110101 =
1#
#670
0#
#675
19
b1101 :
b1010101100001011 8
b1 ;
b10101011000010111 3
b1010101100001011 !
b1010101100001011 +
b1010101100001011 2
b1101010110000101 "
b1110 ?
1'
b1 >
b110110 =
1#
#680
0#
#685
b1101 :
09
b101011000010111 8
b1 ;
b1010110000101110 3
b101011000010111 !
b101011000010111 +
b101011000010111 2
b1010101100001011 "
b1110 ?
1'
b1 >
b110111 =
1#
#690
0#
#695
b1101 :
19
b1010110000101110 8
b10101100001011101 3
b1 ;
b1010110000101110 !
b1010110000101110 +
b1010110000101110 2
b101011000010111 "
1'
b1110 ?
b1 >
b111000 =
1#
#700
0#
#705
b1101 :
09
b101100001011101 8
b1 ;
b1011000010111010 3
b101100001011101 !
b101100001011101 +
b101100001011101 2
b1010110000101110 "
b1110 ?
0'
b1 >
b111001 =
1#
#710
0#
#715
b1101 :
19
b1011000010111010 8
b10110000101110101 3
b1 ;
b1011000010111010 !
b1011000010111010 +
b1011000010111010 2
b101100001011101 "
b1110 ?
1'
b1 >
b111010 =
1#
#720
0#
#725
b1101 :
b110000101110101 8
b1 ;
b1100001011101011 3
b110000101110101 !
b110000101110101 +
b110000101110101 2
b1011000010111010 "
b1110 ?
0'
b1 >
b111011 =
1#
#730
0#
#735
b1101 :
19
b1100001011101011 8
b11000010111010111 3
b1 ;
b1100001011101011 !
b1100001011101011 +
b1100001011101011 2
b110000101110101 "
b1110 ?
1'
b1 >
b111100 =
1#
#740
0#
#745
b1101 :
19
b1000010111010111 8
b1 ;
b10000101110101111 3
b1000010111010111 !
b1000010111010111 +
b1000010111010111 2
b1100001011101011 "
b1110 ?
b1 >
b111101 =
1#
#750
0#
#755
b1101 :
09
b101110101111 8
b1 ;
b1011101011110 3
b101110101111 !
b101110101111 +
b101110101111 2
b1000010111010111 "
b1110 ?
1'
b1 >
b111110 =
1#
#760
0#
#765
09
b1101 :
b1011101011110 8
b10111010111100 3
b1 ;
b1011101011110 !
b1011101011110 +
b1011101011110 2
b101110101111 "
b1110 ?
1'
b1 >
b111111 =
1#
#770
0#
#775
b1101 :
09
b10111010111100 8
b101110101111000 3
b1 ;
b10111010111100 !
b10111010111100 +
b10111010111100 2
b1011101011110 "
b1110 ?
0'
b1 >
b1000000 =
1#
#780
0#
#785
09
b1101 :
b101110101111000 8
b1011101011110000 3
b1 ;
b101110101111000 !
b101110101111000 +
b101110101111000 2
b10111010111100 "
0'
b1110 ?
b1 >
b1000001 =
1#
#790
0#
#795
b1101 :
19
b1011101011110000 8
b10111010111100001 3
b1 ;
b1011101011110000 !
b1011101011110000 +
b1011101011110000 2
b101110101111000 "
b1110 ?
0'
b1 >
b1000010 =
1#
#800
0#
#805
09
b1101 :
b111010111100001 8
b1 ;
b1110101111000010 3
b111010111100001 !
b111010111100001 +
b111010111100001 2
b1011101011110000 "
0'
b1110 ?
b1 >
b1000011 =
1#
#810
0#
#815
b1101 :
19
b1110101111000010 8
b11101011110000101 3
b1 ;
b1110101111000010 !
b1110101111000010 +
b1110101111000010 2
b111010111100001 "
b1110 ?
1'
b1 >
b1000100 =
1#
#820
0#
#825
b1101 :
19
b1101011110000101 8
b1 ;
b11010111100001011 3
b1101011110000101 !
b1101011110000101 +
b1101011110000101 2
b1110101111000010 "
0'
b1110 ?
b1 >
b1000101 =
1#
#830
0#
#835
19
b1101 :
b1010111100001011 8
b1 ;
b10101111000010111 3
b1010111100001011 !
b1010111100001011 +
b1010111100001011 2
b1101011110000101 "
b1110 ?
1'
b1 >
b1000110 =
1#
#840
0#
#845
b1101 :
19
b101111000010111 8
b1 ;
b1011110000101111 3
b101111000010111 !
b101111000010111 +
b101111000010111 2
b1010111100001011 "
b1110 ?
1'
b1 >
b1000111 =
1#
#850
0#
#855
09
b1101 :
b1011110000101111 8
b10111100001011110 3
b1 ;
b1011110000101111 !
b1011110000101111 +
b1011110000101111 2
b101111000010111 "
1'
b1110 ?
b1 >
b1001000 =
1#
#860
0#
#865
b1101 :
09
b111100001011110 8
b1 ;
b1111000010111100 3
b111100001011110 !
b111100001011110 +
b111100001011110 2
b1011110000101111 "
b1110 ?
1'
b1 >
b1001001 =
1#
#870
0#
#875
b1101 :
09
b1111000010111100 8
b11110000101111000 3
b1 ;
b1111000010111100 !
b1111000010111100 +
b1111000010111100 2
b111100001011110 "
0'
b1110 ?
b1 >
b1001010 =
1#
#880
0#
#885
b1101 :
19
b1110000101111000 8
b1 ;
b11100001011110001 3
b1110000101111000 !
b1110000101111000 +
b1110000101111000 2
b1111000010111100 "
b1110 ?
0'
b1 >
b1001011 =
1#
#890
0#
#895
b1101 :
09
b1100001011110001 8
b1 ;
b11000010111100010 3
b1100001011110001 !
b1100001011110001 +
b1100001011110001 2
b1110000101111000 "
b1110 ?
0'
b1 >
b1001100 =
1#
#900
0#
#905
19
b1101 :
b1000010111100010 8
b1 ;
b10000101111000101 3
b1000010111100010 !
b1000010111100010 +
b1000010111100010 2
b1100001011110001 "
b1110 ?
1'
b1 >
b1001101 =
1#
#910
0#
#915
b1101 :
19
b101111000101 8
b1 ;
b1011110001011 3
b101111000101 !
b101111000101 +
b101111000101 2
b1000010111100010 "
b1110 ?
0'
b1 >
b1001110 =
1#
#920
0#
#925
b1101 :
09
b1011110001011 8
b10111100010110 3
b1 ;
b1011110001011 !
b1011110001011 +
b1011110001011 2
b101111000101 "
1'
b1110 ?
b1 >
b1001111 =
1#
#930
0#
#935
0$
b10111100010110 !
b10111100010110 +
b10111100010110 2
b1011110001011 "
b1110 ?
1'
b1 >
b1010000 =
1#
#936
b1 <
b1 *
b1 /
#940
0#
#945
b1 3
1&
1#
#950
0#
#955
0&
b1 !
b1 +
b1 2
b1 5
b1 "
1#
#960
0#
#965
19
b1101 :
b10 8
b101 3
b10 ;
1$
1&
1#
#970
0#
#975
b1101 :
19
b1010 8
b10101 3
b10 ;
0&
b101 !
b101 +
b101 2
b0 =
1#
#980
0#
#985
b1101 :
19
b101010 8
b1010101 3
b10 ;
b10101 !
b10101 +
b10101 2
b101 "
b1110 ?
1'
b10 >
b1 =
1#
#990
0#
#995
b1101 :
19
b10101010 8
b101010101 3
b10 ;
b1010101 !
b1010101 +
b1010101 2
b10101 "
b1110 ?
1'
b10 >
b10 =
1#
#1000
0#
#1005
b1101 :
19
b1010101010 8
b10101010101 3
b10 ;
b101010101 !
b101010101 +
b101010101 2
b1010101 "
b1110 ?
1'
b10 >
b11 =
1#
#1010
0#
#1015
b1101 :
09
b101010101010 8
b1010101010100 3
b10 ;
b10101010101 !
b10101010101 +
b10101010101 2
b101010101 "
b1110 ?
1'
b10 >
b100 =
1#
#1020
0#
#1025
09
b1101 :
b10101010101001 8
b101010101010010 3
b10 ;
b1010101010100 !
b1010101010100 +
b1010101010100 2
b10101010101 "
b1110 ?
1'
b10 >
b101 =
1#
#1030
0#
#1035
09
b1101 :
b1010101010100100 8
b10101010101001000 3
b10 ;
b101010101010010 !
b101010101010010 +
b101010101010010 2
b1010101010100 "
b1110 ?
0'
b10 >
b110 =
1#
#1040
0#
#1045
09
b1101 :
b1010101010010001 8
b10 ;
b10101010100100010 3
b101010101001000 !
b101010101001000 +
b101010101001000 2
b101010101010010 "
0'
b1110 ?
b10 >
b111 =
1#
#1050
0#
#1055
09
b1101 :
b1010101001000100 8
b10 ;
b10101010010001000 3
b101010100100010 !
b101010100100010 +
b101010100100010 2
b101010101001000 "
0'
b1110 ?
b10 >
b1000 =
1#
#1060
0#
#1065
09
b1101 :
b1010100100010001 8
b10 ;
b10101001000100010 3
b101010010001000 !
b101010010001000 +
b101010010001000 2
b101010100100010 "
0'
b1110 ?
b10 >
b1001 =
1#
#1070
0#
#1075
19
b1101 :
b1010010001000100 8
b10 ;
b10100100010001001 3
b101001000100010 !
b101001000100010 +
b101001000100010 2
b101010010001000 "
0'
b1110 ?
b10 >
b1010 =
1#
#1080
0#
#1085
b1101 :
09
b1001000100010011 8
b10 ;
b10010001000100110 3
b100100010001001 !
b100100010001001 +
b100100010001001 2
b101001000100010 "
0'
b1110 ?
b10 >
b1011 =
1#
#1090
0#
#1095
b1101 :
09
b100010001001100 8
b10 ;
b1000100010011000 3
b10001000100110 !
b10001000100110 +
b10001000100110 2
b100100010001001 "
1'
b1110 ?
b10 >
b1100 =
1#
#1100
0#
#1105
19
b1101 :
b1000100110001 8
b10001001100011 3
b10 ;
b1000100010011000 !
b1000100010011000 +
b1000100010011000 2
b10001000100110 "
b1110 ?
0'
b10 >
b1101 =
1#
#1110
0#
#1115
19
b1101 :
b100010011000110 8
b1000100110001101 3
b10 ;
b10001001100011 !
b10001001100011 +
b10001001100011 2
b1000100010011000 "
b1110 ?
0'
b10 >
b1110 =
1#
#1120
0#
#1125
b1101 :
09
b1001100011011 8
b10011000110110 3
b10 ;
b1000100110001101 !
b1000100110001101 +
b1000100110001101 2
b10001001100011 "
1'
b1110 ?
b10 >
b1111 =
1#
#1130
0#
#1135
b1101 :
19
b100110001101100 8
b1001100011011001 3
b10 ;
b10011000110110 !
b10011000110110 +
b10011000110110 2
b1000100110001101 "
1'
b1110 ?
b10 >
b10000 =
1#
#1140
0#
#1145
b1101 :
19
b11000110110010 8
b110001101100101 3
b10 ;
b1001100011011001 !
b1001100011011001 +
b1001100011011001 2
b10011000110110 "
b1110 ?
0'
b10 >
b10001 =
1#
#1150
0#
#1155
19
b1101 :
b1100011011001011 8
b11000110110010111 3
b10 ;
b110001101100101 !
b110001101100101 +
b110001101100101 2
b1001100011011001 "
b1110 ?
1'
b10 >
b10010 =
1#
#1160
0#
#1165
b1101 :
19
b1101100101110 8
b10 ;
b11011001011101 3
b1000110110010111 !
b1000110110010111 +
b1000110110010111 2
b110001101100101 "
b1110 ?
1'
b10 >
b10011 =
1#
#1170
0#
#1175
19
b1101 :
b110110010111010 8
b1101100101110101 3
b10 ;
b11011001011101 !
b11011001011101 +
b11011001011101 2
1'
b1000110110010111 "
b1110 ?
b10 >
b10100 =
1#
#1180
0#
#1185
b1101 :
19
b1011001011101010 8
b10110010111010101 3
b10 ;
b1101100101110101 !
b1101100101110101 +
b1101100101110101 2
b11011001011101 "
b1110 ?
1'
b10 >
b10101 =
1#
#1190
0#
#1195
09
b1101 :
b1100101110101011 8
b10 ;
b11001011101010110 3
b110010111010101 !
b110010111010101 +
b110010111010101 2
b1101100101110101 "
1'
b1110 ?
b10 >
b10110 =
1#
#1200
0#
#1205
09
b1101 :
b10111010101100 8
b10 ;
b101110101011000 3
b1001011101010110 !
b1001011101010110 +
b1001011101010110 2
b110010111010101 "
b1110 ?
1'
b10 >
b10111 =
1#
#1210
0#
#1215
19
b1101 :
b1011101010110000 8
b10111010101100001 3
b10 ;
b101110101011000 !
b101110101011000 +
b101110101011000 2
0'
b1001011101010110 "
b1110 ?
b10 >
b11000 =
1#
#1220
0#
#1225
19
b1101 :
b1110101011000010 8
b10 ;
b11101010110000101 3
b111010101100001 !
b111010101100001 +
b111010101100001 2
b101110101011000 "
0'
b1110 ?
b10 >
b11001 =
1#
#1230
0#
#1235
b1101 :
19
b1010101100001011 8
b10 ;
b10101011000010111 3
b1101010110000101 !
b1101010110000101 +
b1101010110000101 2
b111010101100001 "
1'
b1110 ?
b10 >
b11010 =
1#
#1240
0#
#1245
b1101 :
19
b1010110000101110 8
b10 ;
b10101100001011101 3
b101011000010111 !
b101011000010111 +
b101011000010111 2
b1101010110000101 "
1'
b1110 ?
b10 >
b11011 =
1#
#1250
0#
#1255
b1101 :
19
b1011000010111010 8
b10 ;
b10110000101110101 3
b101100001011101 !
b101100001011101 +
b101100001011101 2
b101011000010111 "
b1110 ?
1'
b10 >
b11100 =
1#
#1260
0#
#1265
19
b1101 :
b1100001011101011 8
b10 ;
b11000010111010111 3
b110000101110101 !
b110000101110101 +
b110000101110101 2
b101100001011101 "
b1110 ?
1'
b10 >
b11101 =
1#
#1270
0#
#1275
b1101 :
09
b101110101111 8
b10 ;
b1011101011110 3
b1000010111010111 !
b1000010111010111 +
b1000010111010111 2
b110000101110101 "
b1110 ?
1'
b10 >
b11110 =
1#
#1280
0#
#1285
09
b1101 :
b10111010111100 8
b101110101111000 3
b10 ;
b1011101011110 !
b1011101011110 +
b1011101011110 2
1'
b1000010111010111 "
b1110 ?
b10 >
b11111 =
1#
#1290
0#
#1295
19
b1101 :
b1011101011110000 8
b10111010111100001 3
b10 ;
b101110101111000 !
b101110101111000 +
b101110101111000 2
b1011101011110 "
b1110 ?
0'
b10 >
b100000 =
1#
#1300
0#
#1305
19
b1101 :
b1110101111000010 8
b10 ;
b11101011110000101 3
b111010111100001 !
b111010111100001 +
b111010111100001 2
b101110101111000 "
0'
b1110 ?
b10 >
b100001 =
1#
#1310
0#
#1315
b1101 :
19
b1010111100001011 8
b10 ;
b10101111000010111 3
b1101011110000101 !
b1101011110000101 +
b1101011110000101 2
b111010111100001 "
1'
b1110 ?
b10 >
b100010 =
1#
#1320
0#
#1325
b1101 :
09
b1011110000101111 8
b10 ;
b10111100001011110 3
b101111000010111 !
b101111000010111 +
b101111000010111 2
b1101011110000101 "
1'
b1110 ?
b10 >
b100011 =
1#
#1330
0#
#1335
b1101 :
09
b1111000010111100 8
b10 ;
b11110000101111000 3
b111100001011110 !
b111100001011110 +
b111100001011110 2
b101111000010111 "
b1110 ?
1'
b10 >
b100100 =
1#
#1340
0#
#1345
b1101 :
09
b1100001011110001 8
b10 ;
b11000010111100010 3
b1110000101111000 !
b1110000101111000 +
b1110000101111000 2
b111100001011110 "
b1110 ?
0'
b10 >
b100101 =
1#
#1350
0#
#1355
19
b1101 :
b101111000101 8
b10 ;
b1011110001011 3
b1000010111100010 !
b1000010111100010 +
b1000010111100010 2
b1110000101111000 "
b1110 ?
0'
b10 >
b100110 =
1#
#1360
0#
#1365
b1101 :
19
b10111100010110 8
b101111000101101 3
b10 ;
b1011110001011 !
b1011110001011 +
b1011110001011 2
b1000010111100010 "
b1110 ?
0'
b10 >
b100111 =
1#
#1370
0#
#1375
b1101 :
09
b1011110001011010 8
b10111100010110100 3
b10 ;
b101111000101101 !
b101111000101101 +
b101111000101101 2
b1011110001011 "
1'
b1110 ?
b10 >
b101000 =
1#
#1380
0#
#1385
b1101 :
09
b1111000101101001 8
b10 ;
b11110001011010010 3
b111100010110100 !
b111100010110100 +
b111100010110100 2
b101111000101101 "
b1110 ?
1'
b10 >
b101001 =
1#
#1390
0#
#1395
b1101 :
09
b1100010110100100 8
b10 ;
b11000101101001000 3
b1110001011010010 !
b1110001011010010 +
b1110001011010010 2
b111100010110100 "
b1110 ?
0'
b10 >
b101010 =
1#
#1400
0#
#1405
19
b1101 :
b1011010010001 8
b10 ;
b10110100100011 3
b1000101101001000 !
b1000101101001000 +
b1000101101001000 2
b1110001011010010 "
b1110 ?
0'
b10 >
b101011 =
1#
#1410
0#
#1415
19
b1101 :
b101101001000111 8
b1011010010001111 3
b10 ;
b10110100100011 !
b10110100100011 +
b10110100100011 2
b1000101101001000 "
b1110 ?
0'
b10 >
b101100 =
1#
#1420
0#
#1425
19
b1101 :
b110100100011111 8
b1101001000111111 3
b10 ;
b1011010010001111 !
b1011010010001111 +
b1011010010001111 2
b10110100100011 "
1'
b1110 ?
b10 >
b101101 =
1#
#1430
0#
#1435
b1101 :
09
b1010010001111110 8
b10100100011111100 3
b10 ;
b1101001000111111 !
b1101001000111111 +
b1101001000111111 2
b1011010010001111 "
1'
b1110 ?
b10 >
b101110 =
1#
#1440
0#
#1445
19
b1101 :
b1001000111111001 8
b10 ;
b10010001111110011 3
b100100011111100 !
b100100011111100 +
b100100011111100 2
b1101001000111111 "
1'
b1110 ?
b10 >
b101111 =
1#
#1450
0#
#1455
19
b1101 :
b100011111100110 8
b10 ;
b1000111111001101 3
b10001111110011 !
b10001111110011 +
b10001111110011 2
b100100011111100 "
b1110 ?
0'
b10 >
b110000 =
1#
#1460
0#
#1465
b1101 :
19
b1111110011011 8
b11111100110111 3
b10 ;
b1000111111001101 !
b1000111111001101 +
b1000111111001101 2
b10001111110011 "
1'
b1110 ?
b10 >
b110001 =
1#
#1470
0#
#1475
09
b1101 :
b111111001101110 8
b1111110011011100 3
b10 ;
b11111100110111 !
b11111100110111 +
b11111100110111 2
b1000111111001101 "
1'
b1110 ?
b10 >
b110010 =
1#
#1480
0#
